11:31:39 [WarehouseFromInventory][endrizzi3][Yuno] - (Number: 00, Index: 4611, Level: 00, Serial: 00391F67, Option1: 0, Option2: 1, Option3: 0, NewOption: 000, SetOption: 006, JoHOption: 000, 380Option: 000, SocketOption: 255,255,255,255,255, SocketOptionBonus: 255)
11:31:39 [WarehouseFromInventory][endrizzi3][Yuno] - (Number: 00, Index: 4099, Level: 00, Serial: 00619E10, Option1: 0, Option2: 1, Option3: 0, NewOption: 000, SetOption: 005, JoHOption: 000, 380Option: 000, SocketOption: 255,255,255,255,255, SocketOptionBonus: 255)
11:31:40 [WarehouseFromInventory][endrizzi3][Yuno] - (Number: 00, Index: 3587, Level: 00, Serial: 00259893, Option1: 0, Option2: 0, Option3: 0, NewOption: 000, SetOption: 009, JoHOption: 000, 380Option: 000, SocketOption: 255,255,255,255,255, SocketOptionBonus: 255)
11:31:40 [WarehouseFromInventory][endrizzi3][Yuno] - (Number: 00, Index: 5123, Level: 00, Serial: 0025BB2A, Option1: 0, Option2: 1, Option3: 0, NewOption: 000, SetOption: 005, JoHOption: 000, 380Option: 000, SocketOption: 255,255,255,255,255, SocketOptionBonus: 255)
11:31:40 [WarehouseFromInventory][endrizzi3][Yuno] - (Number: 00, Index: 5635, Level: 00, Serial: 003ADDAF, Option1: 0, Option2: 0, Option3: 0, NewOption: 000, SetOption: 006, JoHOption: 000, 380Option: 000, SocketOption: 255,255,255,255,255, SocketOptionBonus: 255)
11:31:46 [WarehouseFromInventory][endrizzi3][Yuno] - (Number: 00, Index: 4703, Level: 00, Serial: 0053B85A, Option1: 0, Option2: 1, Option3: 0, NewOption: 000, SetOption: 005, JoHOption: 000, 380Option: 000, SocketOption: 255,255,255,255,255, SocketOptionBonus: 255)
11:31:47 [WarehouseFromInventory][endrizzi3][Yuno] - (Number: 00, Index: 5647, Level: 09, Serial: 00257B5A, Option1: 0, Option2: 0, Option3: 4, NewOption: 000, SetOption: 009, JoHOption: 000, 380Option: 000, SocketOption: 255,255,255,255,255, SocketOptionBonus: 255)
11:31:50 [WarehouseFromInventory][endrizzi3][Yuno] - (Number: 00, Index: 6692, Level: 00, Serial: 0074D743, Option1: 0, Option2: 0, Option3: 0, NewOption: 000, SetOption: 000, JoHOption: 000, 380Option: 000, SocketOption: 255,255,255,255,255, SocketOptionBonus: 255)
11:31:52 [InventoryFromWarehouse][endrizzi3][Yuno] - (Number: 00, Index: 6692, Level: 00, Serial: 0074D743, Option1: 0, Option2: 0, Option3: 0, NewOption: 000, SetOption: 000, JoHOption: 000, 380Option: 000, SocketOption: 255,255,255,255,255, SocketOptionBonus: 255)
11:31:53 [WarehouseFromInventory][endrizzi3][Yuno] - (Number: 00, Index: 7432, Level: 00, Serial: 0074D758, Option1: 0, Option2: 0, Option3: 0, NewOption: 000, SetOption: 000, JoHOption: 000, 380Option: 000, SocketOption: 255,255,255,255,255, SocketOptionBonus: 255)
11:31:53 [WarehouseFromInventory][endrizzi3][Yuno] - (Number: 00, Index: 7190, Level: 00, Serial: 006BB5EA, Option1: 0, Option2: 0, Option3: 0, NewOption: 000, SetOption: 000, JoHOption: 000, 380Option: 000, SocketOption: 255,255,255,255,255, SocketOptionBonus: 255)
11:31:54 [WarehouseFromInventory][endrizzi3][Yuno] - (Number: 00, Index: 7171, Level: 00, Serial: 00000000, Option1: 0, Option2: 0, Option3: 0, NewOption: 000, SetOption: 000, JoHOption: 000, 380Option: 000, SocketOption: 255,255,255,255,255, SocketOptionBonus: 255)
11:31:54 [WarehouseFromInventory][endrizzi3][Yuno] - (Number: 00, Index: 6159, Level: 00, Serial: 006B85D0, Option1: 0, Option2: 0, Option3: 0, NewOption: 000, SetOption: 000, JoHOption: 000, 380Option: 000, SocketOption: 255,255,255,255,255, SocketOptionBonus: 255)
11:31:57 [WarehouseFromInventory][endrizzi3][Yuno] - (Number: 00, Index: 6691, Level: 00, Serial: 0074D74A, Option1: 0, Option2: 0, Option3: 0, NewOption: 000, SetOption: 000, JoHOption: 000, 380Option: 000, SocketOption: 255,255,255,255,255, SocketOptionBonus: 255)
11:31:58 [WarehouseFromInventory][endrizzi3][Yuno] - (Number: 00, Index: 6691, Level: 00, Serial: 0074D749, Option1: 0, Option2: 0, Option3: 0, NewOption: 000, SetOption: 000, JoHOption: 000, 380Option: 000, SocketOption: 255,255,255,255,255, SocketOptionBonus: 255)
11:31:58 [WarehouseFromInventory][endrizzi3][Yuno] - (Number: 00, Index: 6691, Level: 00, Serial: 0074D741, Option1: 0, Option2: 0, Option3: 0, NewOption: 000, SetOption: 000, JoHOption: 000, 380Option: 000, SocketOption: 255,255,255,255,255, SocketOptionBonus: 255)
11:32:04 [InventoryFromWarehouse][endrizzi3][Yuno] - (Number: 00, Index: 6677, Level: 00, Serial: 00541AB5, Option1: 0, Option2: 0, Option3: 0, NewOption: 000, SetOption: 006, JoHOption: 000, 380Option: 000, SocketOption: 255,255,255,255,255, SocketOptionBonus: 255)
11:32:07 [WarehouseFromInventory][endrizzi3][Yuno] - (Number: 00, Index: 7184, Level: 00, Serial: 006510A5, Option1: 0, Option2: 0, Option3: 0, NewOption: 000, SetOption: 000, JoHOption: 000, 380Option: 000, SocketOption: 255,255,255,255,255, SocketOptionBonus: 255)
11:32:08 [WarehouseFromInventory][endrizzi3][Yuno] - (Number: 00, Index: 7184, Level: 00, Serial: 006BA790, Option1: 0, Option2: 0, Option3: 0, NewOption: 000, SetOption: 000, JoHOption: 000, 380Option: 000, SocketOption: 255,255,255,255,255, SocketOptionBonus: 255)
11:32:08 [WarehouseFromInventory][endrizzi3][Yuno] - (Number: 00, Index: 7190, Level: 00, Serial: 005964D5, Option1: 0, Option2: 0, Option3: 0, NewOption: 000, SetOption: 000, JoHOption: 000, 380Option: 000, SocketOption: 255,255,255,255,255, SocketOptionBonus: 255)
11:32:09 [WarehouseFromInventory][endrizzi3][Yuno] - (Number: 00, Index: 7209, Level: 00, Serial: 00806469, Option1: 0, Option2: 0, Option3: 0, NewOption: 000, SetOption: 000, JoHOption: 000, 380Option: 000, SocketOption: 255,255,255,255,255, SocketOptionBonus: 255)
11:32:10 [InventoryFromWarehouse][endrizzi3][Yuno] - (Number: 00, Index: 7209, Level: 00, Serial: 00806469, Option1: 0, Option2: 0, Option3: 0, NewOption: 000, SetOption: 000, JoHOption: 000, 380Option: 000, SocketOption: 255,255,255,255,255, SocketOptionBonus: 255)
11:32:12 [WarehouseFromInventory][endrizzi3][Yuno] - (Number: 00, Index: 7431, Level: 00, Serial: 0074D742, Option1: 0, Option2: 0, Option3: 0, NewOption: 000, SetOption: 000, JoHOption: 000, 380Option: 000, SocketOption: 255,255,255,255,255, SocketOptionBonus: 255)
11:32:14 [WarehouseFromInventory][endrizzi3][Yuno] - (Number: 00, Index: 7431, Level: 00, Serial: 0074D757, Option1: 0, Option2: 0, Option3: 0, NewOption: 000, SetOption: 000, JoHOption: 000, 380Option: 000, SocketOption: 255,255,255,255,255, SocketOptionBonus: 255)
11:32:15 [WarehouseFromInventory][endrizzi3][Yuno] - (Number: 00, Index: 7432, Level: 00, Serial: 0074D74D, Option1: 0, Option2: 0, Option3: 0, NewOption: 000, SetOption: 000, JoHOption: 000, 380Option: 000, SocketOption: 255,255,255,255,255, SocketOptionBonus: 255)
11:32:16 [WarehouseFromInventory][endrizzi3][Yuno] - (Number: 00, Index: 6703, Level: 00, Serial: 00633973, Option1: 0, Option2: 0, Option3: 0, NewOption: 000, SetOption: 000, JoHOption: 000, 380Option: 000, SocketOption: 255,255,255,255,255, SocketOptionBonus: 255)
11:32:18 [WarehouseFromInventory][endrizzi3][Yuno] - (Number: 00, Index: 7477, Level: 00, Serial: 0061A634, Option1: 0, Option2: 0, Option3: 0, NewOption: 000, SetOption: 000, JoHOption: 000, 380Option: 000, SocketOption: 255,255,255,255,255, SocketOptionBonus: 255)
11:32:18 [WarehouseFromInventory][endrizzi3][Yuno] - (Number: 00, Index: 7477, Level: 00, Serial: 0053E0E0, Option1: 0, Option2: 0, Option3: 0, NewOption: 000, SetOption: 000, JoHOption: 000, 380Option: 000, SocketOption: 255,255,255,255,255, SocketOptionBonus: 255)
11:32:18 [WarehouseFromInventory][endrizzi3][Yuno] - (Number: 00, Index: 7431, Level: 00, Serial: 0074D74E, Option1: 0, Option2: 0, Option3: 0, NewOption: 000, SetOption: 000, JoHOption: 000, 380Option: 000, SocketOption: 255,255,255,255,255, SocketOptionBonus: 255)
11:32:19 [WarehouseFromInventory][endrizzi3][Yuno] - (Number: 00, Index: 7264, Level: 00, Serial: 0053E847, Option1: 0, Option2: 0, Option3: 0, NewOption: 000, SetOption: 000, JoHOption: 000, 380Option: 000, SocketOption: 255,255,255,255,255, SocketOptionBonus: 255)
11:32:20 [WarehouseFromInventory][endrizzi3][Yuno] - (Number: 00, Index: 7432, Level: 00, Serial: 0074D751, Option1: 0, Option2: 0, Option3: 0, NewOption: 000, SetOption: 000, JoHOption: 000, 380Option: 000, SocketOption: 255,255,255,255,255, SocketOptionBonus: 255)
11:32:20 [WarehouseFromInventory][endrizzi3][Yuno] - (Number: 00, Index: 7431, Level: 00, Serial: 0074D74B, Option1: 0, Option2: 0, Option3: 0, NewOption: 000, SetOption: 000, JoHOption: 000, 380Option: 000, SocketOption: 255,255,255,255,255, SocketOptionBonus: 255)
11:32:21 [WarehouseFromInventory][endrizzi3][Yuno] - (Number: 00, Index: 7431, Level: 00, Serial: 0074D746, Option1: 0, Option2: 0, Option3: 0, NewOption: 000, SetOption: 000, JoHOption: 000, 380Option: 000, SocketOption: 255,255,255,255,255, SocketOptionBonus: 255)
11:32:21 [WarehouseFromInventory][endrizzi3][Yuno] - (Number: 00, Index: 6691, Level: 00, Serial: 0074D747, Option1: 0, Option2: 0, Option3: 0, NewOption: 000, SetOption: 000, JoHOption: 000, 380Option: 000, SocketOption: 255,255,255,255,255, SocketOptionBonus: 255)
11:32:22 [WarehouseFromInventory][endrizzi3][Yuno] - (Number: 00, Index: 7432, Level: 00, Serial: 0074D752, Option1: 0, Option2: 0, Option3: 0, NewOption: 000, SetOption: 000, JoHOption: 000, 380Option: 000, SocketOption: 255,255,255,255,255, SocketOptionBonus: 255)
11:32:22 [WarehouseFromInventory][endrizzi3][Yuno] - (Number: 00, Index: 7264, Level: 00, Serial: 0053E848, Option1: 0, Option2: 0, Option3: 0, NewOption: 000, SetOption: 000, JoHOption: 000, 380Option: 000, SocketOption: 255,255,255,255,255, SocketOptionBonus: 255)
11:32:24 [WarehouseFromInventory][endrizzi3][Yuno] - (Number: 00, Index: 7184, Level: 00, Serial: 00681E36, Option1: 0, Option2: 0, Option3: 0, NewOption: 000, SetOption: 000, JoHOption: 000, 380Option: 000, SocketOption: 255,255,255,255,255, SocketOptionBonus: 255)
11:32:24 [WarehouseFromInventory][endrizzi3][Yuno] - (Number: 00, Index: 6691, Level: 00, Serial: 0074D755, Option1: 0, Option2: 0, Option3: 0, NewOption: 000, SetOption: 000, JoHOption: 000, 380Option: 000, SocketOption: 255,255,255,255,255, SocketOptionBonus: 255)
11:32:25 [WarehouseFromInventory][endrizzi3][Yuno] - (Number: 00, Index: 7269, Level: 00, Serial: 006ABE0C, Option1: 0, Option2: 0, Option3: 0, NewOption: 000, SetOption: 000, JoHOption: 000, 380Option: 000, SocketOption: 255,255,255,255,255, SocketOptionBonus: 255)
11:32:26 [WarehouseFromInventory][endrizzi3][Yuno] - (Number: 00, Index: 7458, Level: 00, Serial: 00546A58, Option1: 0, Option2: 0, Option3: 0, NewOption: 000, SetOption: 000, JoHOption: 000, 380Option: 000, SocketOption: 255,255,255,255,255, SocketOptionBonus: 255)
11:32:29 [WarehouseFromInventory][endrizzi3][Yuno] - (Number: 00, Index: 7213, Level: 00, Serial: 0065D2A5, Option1: 0, Option2: 0, Option3: 0, NewOption: 000, SetOption: 000, JoHOption: 000, 380Option: 000, SocketOption: 255,255,255,255,255, SocketOptionBonus: 255)
11:33:19 [WarehouseFromInventory][punisher][Ninja] - (Number: 00, Index: 5283, Level: 00, Serial: 0080E999, Option1: 0, Option2: 1, Option3: 0, NewOption: 004, SetOption: 000, JoHOption: 000, 380Option: 000, SocketOption: 255,255,008,255,255, SocketOptionBonus: 255)
11:33:21 [InventoryFromWarehouse][punisher][Ninja] - (Number: 00, Index: 6435, Level: 00, Serial: 007ECF17, Option1: 0, Option2: 0, Option3: 0, NewOption: 000, SetOption: 000, JoHOption: 000, 380Option: 000, SocketOption: 255,255,255,255,255, SocketOptionBonus: 255)
11:41:32 [Sell][punishhim][Warzone] - (Index: 7184, Level: 00, Serial: 00809627, Option1: 0, Option2: 0, Option3: 0, NewOption: 000, SetOption: 000, JoHOption: 000, 380Option: 000, SocketOption: 255,255,255,255,255, SocketOptionBonus: 255)
11:41:33 [Sell][punishhim][Warzone] - (Index: 4194, Level: 00, Serial: 00808D54, Option1: 0, Option2: 0, Option3: 2, NewOption: 002, SetOption: 000, JoHOption: 000, 380Option: 000, SocketOption: 255,008,009,255,255, SocketOptionBonus: 255)
11:41:34 [Sell][punishhim][Warzone] - (Index: 4198, Level: 00, Serial: 008095B8, Option1: 0, Option2: 1, Option3: 2, NewOption: 001, SetOption: 000, JoHOption: 000, 380Option: 000, SocketOption: 255,006,008,255,255, SocketOptionBonus: 255)
11:41:35 [Sell][punishhim][Warzone] - (Index: 4197, Level: 00, Serial: 00809018, Option1: 0, Option2: 0, Option3: 1, NewOption: 001, SetOption: 000, JoHOption: 000, 380Option: 000, SocketOption: 255,007,009,255,255, SocketOptionBonus: 255)
11:41:36 [Sell][punishhim][Warzone] - (Index: 4730, Level: 00, Serial: 008091FD, Option1: 0, Option2: 0, Option3: 1, NewOption: 002, SetOption: 000, JoHOption: 000, 380Option: 000, SocketOption: 255,007,009,255,255, SocketOptionBonus: 255)
11:41:36 [Sell][punishhim][Warzone] - (Index: 4703, Level: 00, Serial: 0080910E, Option1: 0, Option2: 0, Option3: 0, NewOption: 040, SetOption: 000, JoHOption: 000, 380Option: 000, SocketOption: 255,255,255,255,255, SocketOptionBonus: 255)
11:41:37 [Sell][punishhim][Warzone] - (Index: 4195, Level: 00, Serial: 008092DB, Option1: 0, Option2: 1, Option3: 2, NewOption: 006, SetOption: 000, JoHOption: 000, 380Option: 000, SocketOption: 255,255,008,255,255, SocketOptionBonus: 255)
11:41:38 [Sell][punishhim][Warzone] - (Index: 3682, Level: 00, Serial: 00809273, Option1: 0, Option2: 0, Option3: 1, NewOption: 002, SetOption: 000, JoHOption: 000, 380Option: 000, SocketOption: 255,255,255,255,255, SocketOptionBonus: 255)
11:41:39 [Sell][punishhim][Warzone] - (Index: 4708, Level: 00, Serial: 00808E5A, Option1: 0, Option2: 1, Option3: 2, NewOption: 002, SetOption: 000, JoHOption: 000, 380Option: 000, SocketOption: 255,255,008,255,255, SocketOptionBonus: 255)
11:41:40 [Sell][punishhim][Warzone] - (Index: 3645, Level: 00, Serial: 0080922A, Option1: 0, Option2: 0, Option3: 0, NewOption: 016, SetOption: 000, JoHOption: 000, 380Option: 000, SocketOption: 255,255,255,255,255, SocketOptionBonus: 255)
11:41:40 [Sell][punishhim][Warzone] - (Index: 5732, Level: 00, Serial: 00808F86, Option1: 0, Option2: 0, Option3: 2, NewOption: 001, SetOption: 000, JoHOption: 000, 380Option: 000, SocketOption: 255,008,009,255,255, SocketOptionBonus: 255)
11:41:41 [Sell][punishhim][Warzone] - (Index: 1053, Level: 00, Serial: 0080982D, Option1: 0, Option2: 0, Option3: 0, NewOption: 010, SetOption: 000, JoHOption: 000, 380Option: 000, SocketOption: 255,255,255,255,255, SocketOptionBonus: 255)
11:45:10 [Sell][punishsmm][Fatality] - (Index: 7190, Level: 00, Serial: 007CEDDD, Option1: 0, Option2: 0, Option3: 0, NewOption: 000, SetOption: 000, JoHOption: 000, 380Option: 000, SocketOption: 255,255,255,255,255, SocketOptionBonus: 255)
11:45:12 [Sell][punishsmm][Fatality] - (Index: 7190, Level: 00, Serial: 00775B04, Option1: 0, Option2: 0, Option3: 0, NewOption: 000, SetOption: 000, JoHOption: 000, 380Option: 000, SocketOption: 255,255,255,255,255, SocketOptionBonus: 255)
11:45:13 [Sell][punishsmm][Fatality] - (Index: 7182, Level: 00, Serial: 0063E467, Option1: 0, Option2: 0, Option3: 0, NewOption: 000, SetOption: 000, JoHOption: 000, 380Option: 000, SocketOption: 255,255,255,255,255, SocketOptionBonus: 255)
11:45:16 [Sell][punishsmm][Fatality] - (Index: 6159, Level: 00, Serial: 0064170D, Option1: 0, Option2: 0, Option3: 0, NewOption: 000, SetOption: 000, JoHOption: 000, 380Option: 000, SocketOption: 255,255,255,255,255, SocketOptionBonus: 255)
12:11:31 [Drop][zamot][Zamot] - (Index: 7179, Level: 09, Serial: 00815F2A, Option1: 0, Option2: 0, Option3: 0, NewOption: 000, SetOption: 000, JoHOption: 000, 380Option: 000, SocketOption: 255,255,255,255,255, SocketOptionBonus: 255)
12:11:35 [Drop][zamot][Zamot] - (Index: 7179, Level: 09, Serial: 0081604B, Option1: 0, Option2: 0, Option3: 0, NewOption: 000, SetOption: 000, JoHOption: 000, 380Option: 000, SocketOption: 255,255,255,255,255, SocketOptionBonus: 255)
12:11:50 [Drop][zamot][Zamot] - (Index: 7179, Level: 08, Serial: 0081608E, Option1: 0, Option2: 0, Option3: 0, NewOption: 000, SetOption: 000, JoHOption: 000, 380Option: 000, SocketOption: 255,255,255,255,255, SocketOptionBonus: 255)
12:11:54 [Drop][zamot][Zamot] - (Index: 7179, Level: 11, Serial: 008160CD, Option1: 0, Option2: 0, Option3: 0, NewOption: 000, SetOption: 000, JoHOption: 000, 380Option: 000, SocketOption: 255,255,255,255,255, SocketOptionBonus: 255)
12:12:34 [Drop][zamot][Zamot] - (Index: 7179, Level: 08, Serial: 0081606E, Option1: 0, Option2: 0, Option3: 0, NewOption: 000, SetOption: 000, JoHOption: 000, 380Option: 000, SocketOption: 255,255,255,255,255, SocketOptionBonus: 255)
12:23:25 [InventoryFromWarehouse][bannedmix2][BanneDSlay] - (Number: 00, Index: 6270, Level: 03, Serial: 0075C93F, Option1: 0, Option2: 0, Option3: 0, NewOption: 000, SetOption: 000, JoHOption: 000, 380Option: 000, SocketOption: 255,255,255,255,255, SocketOptionBonus: 255)
12:23:29 [InventoryFromWarehouse][bannedmix2][BanneDSlay] - (Number: 00, Index: 6268, Level: 01, Serial: 00761BCE, Option1: 0, Option2: 0, Option3: 0, NewOption: 000, SetOption: 000, JoHOption: 000, 380Option: 000, SocketOption: 255,255,255,255,255, SocketOptionBonus: 255)
12:23:33 [InventoryFromWarehouse][bannedmix2][BanneDSlay] - (Number: 00, Index: 6271, Level: 01, Serial: 0077CB9A, Option1: 0, Option2: 0, Option3: 0, NewOption: 000, SetOption: 000, JoHOption: 000, 380Option: 000, SocketOption: 255,255,255,255,255, SocketOptionBonus: 255)
12:23:34 [InventoryFromWarehouse][bannedmix2][BanneDSlay] - (Number: 00, Index: 6270, Level: 03, Serial: 008066FB, Option1: 0, Option2: 0, Option3: 0, NewOption: 000, SetOption: 000, JoHOption: 000, 380Option: 000, SocketOption: 255,255,255,255,255, SocketOptionBonus: 255)
12:23:41 [InventoryFromWarehouse][bannedmix2][BanneDSlay] - (Number: 00, Index: 6270, Level: 04, Serial: 007C462F, Option1: 0, Option2: 0, Option3: 0, NewOption: 000, SetOption: 000, JoHOption: 000, 380Option: 000, SocketOption: 255,255,255,255,255, SocketOptionBonus: 255)
12:23:54 [InventoryFromWarehouse][bannedmix2][BanneDSlay] - (Number: 00, Index: 6270, Level: 00, Serial: 007E1331, Option1: 0, Option2: 0, Option3: 0, NewOption: 000, SetOption: 000, JoHOption: 000, 380Option: 000, SocketOption: 255,255,255,255,255, SocketOptionBonus: 255)
12:24:04 [InventoryFromWarehouse][bannedmix2][BanneDSlay] - (Number: 00, Index: 6270, Level: 03, Serial: 007D8C3B, Option1: 0, Option2: 0, Option3: 0, NewOption: 000, SetOption: 000, JoHOption: 000, 380Option: 000, SocketOption: 255,255,255,255,255, SocketOptionBonus: 255)
12:24:05 [InventoryFromWarehouse][bannedmix2][BanneDSlay] - (Number: 00, Index: 6271, Level: 03, Serial: 007D90B2, Option1: 0, Option2: 0, Option3: 0, NewOption: 000, SetOption: 000, JoHOption: 000, 380Option: 000, SocketOption: 255,255,255,255,255, SocketOptionBonus: 255)
12:24:06 [InventoryFromWarehouse][bannedmix2][BanneDSlay] - (Number: 00, Index: 6268, Level: 03, Serial: 007DA68F, Option1: 0, Option2: 0, Option3: 0, NewOption: 000, SetOption: 000, JoHOption: 000, 380Option: 000, SocketOption: 255,255,255,255,255, SocketOptionBonus: 255)
12:24:08 [InventoryFromWarehouse][bannedmix2][BanneDSlay] - (Number: 00, Index: 6272, Level: 00, Serial: 007DD79E, Option1: 0, Option2: 0, Option3: 0, NewOption: 000, SetOption: 000, JoHOption: 000, 380Option: 000, SocketOption: 255,255,255,255,255, SocketOptionBonus: 255)
12:24:09 [InventoryFromWarehouse][bannedmix2][BanneDSlay] - (Number: 00, Index: 6268, Level: 02, Serial: 007DD87B, Option1: 0, Option2: 0, Option3: 0, NewOption: 000, SetOption: 000, JoHOption: 000, 380Option: 000, SocketOption: 255,255,255,255,255, SocketOptionBonus: 255)
12:24:11 [InventoryFromWarehouse][bannedmix2][BanneDSlay] - (Number: 00, Index: 6268, Level: 02, Serial: 00779C88, Option1: 0, Option2: 0, Option3: 0, NewOption: 000, SetOption: 000, JoHOption: 000, 380Option: 000, SocketOption: 255,255,255,255,255, SocketOptionBonus: 255)
12:24:15 [InventoryFromWarehouse][bannedmix2][BanneDSlay] - (Number: 00, Index: 6273, Level: 01, Serial: 00759867, Option1: 0, Option2: 0, Option3: 0, NewOption: 000, SetOption: 000, JoHOption: 000, 380Option: 000, SocketOption: 255,255,255,255,255, SocketOptionBonus: 255)
12:24:20 [InventoryFromWarehouse][bannedmix2][BanneDSlay] - (Number: 00, Index: 6272, Level: 00, Serial: 007AFBEE, Option1: 0, Option2: 0, Option3: 0, NewOption: 000, SetOption: 000, JoHOption: 000, 380Option: 000, SocketOption: 255,255,255,255,255, SocketOptionBonus: 255)
12:24:32 [InventoryFromWarehouse][bannedmix2][BanneDSlay] - (Number: 00, Index: 6269, Level: 00, Serial: 007CD543, Option1: 0, Option2: 0, Option3: 0, NewOption: 000, SetOption: 000, JoHOption: 000, 380Option: 000, SocketOption: 255,255,255,255,255, SocketOptionBonus: 255)
12:24:42 [InventoryFromWarehouse][bannedmix2][BanneDSlay] - (Number: 01, Index: 6273, Level: 02, Serial: 006C36B4, Option1: 0, Option2: 0, Option3: 0, NewOption: 000, SetOption: 000, JoHOption: 000, 380Option: 000, SocketOption: 255,255,255,255,255, SocketOptionBonus: 255)
12:24:43 [InventoryFromWarehouse][bannedmix2][BanneDSlay] - (Number: 01, Index: 6272, Level: 02, Serial: 0080DF18, Option1: 0, Option2: 0, Option3: 0, NewOption: 000, SetOption: 000, JoHOption: 000, 380Option: 000, SocketOption: 255,255,255,255,255, SocketOptionBonus: 255)
12:24:52 [InventoryFromWarehouse][bannedmix2][BanneDSlay] - (Number: 01, Index: 6271, Level: 01, Serial: 007D2C5C, Option1: 0, Option2: 0, Option3: 0, NewOption: 000, SetOption: 000, JoHOption: 000, 380Option: 000, SocketOption: 255,255,255,255,255, SocketOptionBonus: 255)
12:25:04 [InventoryFromWarehouse][bannedmix2][BanneDSlay] - (Number: 01, Index: 6267, Level: 01, Serial: 007D7B7B, Option1: 0, Option2: 0, Option3: 0, NewOption: 000, SetOption: 000, JoHOption: 000, 380Option: 000, SocketOption: 255,255,255,255,255, SocketOptionBonus: 255)
12:25:09 [InventoryFromWarehouse][bannedmix2][BanneDSlay] - (Number: 01, Index: 6268, Level: 05, Serial: 007D5755, Option1: 0, Option2: 0, Option3: 0, NewOption: 000, SetOption: 000, JoHOption: 000, 380Option: 000, SocketOption: 255,255,255,255,255, SocketOptionBonus: 255)
12:25:10 [InventoryFromWarehouse][bannedmix2][BanneDSlay] - (Number: 01, Index: 6265, Level: 02, Serial: 00765057, Option1: 0, Option2: 0, Option3: 0, NewOption: 000, SetOption: 000, JoHOption: 000, 380Option: 000, SocketOption: 255,255,255,255,255, SocketOptionBonus: 255)
12:25:11 [InventoryFromWarehouse][bannedmix2][BanneDSlay] - (Number: 01, Index: 6262, Level: 02, Serial: 0080A323, Option1: 0, Option2: 0, Option3: 0, NewOption: 000, SetOption: 000, JoHOption: 000, 380Option: 000, SocketOption: 255,255,255,255,255, SocketOptionBonus: 255)
12:25:14 [InventoryFromWarehouse][bannedmix2][BanneDSlay] - (Number: 01, Index: 6267, Level: 00, Serial: 00767730, Option1: 0, Option2: 0, Option3: 0, NewOption: 000, SetOption: 000, JoHOption: 000, 380Option: 000, SocketOption: 255,255,255,255,255, SocketOptionBonus: 255)
12:25:27 [InventoryFromWarehouse][bannedmix2][BanneDSlay] - (Number: 00, Index: 6263, Level: 04, Serial: 0076A40C, Option1: 0, Option2: 0, Option3: 0, NewOption: 000, SetOption: 000, JoHOption: 000, 380Option: 000, SocketOption: 255,255,255,255,255, SocketOptionBonus: 255)
12:25:28 [InventoryFromWarehouse][bannedmix2][BanneDSlay] - (Number: 00, Index: 6263, Level: 02, Serial: 00807540, Option1: 0, Option2: 0, Option3: 0, NewOption: 000, SetOption: 000, JoHOption: 000, 380Option: 000, SocketOption: 255,255,255,255,255, SocketOptionBonus: 255)
12:25:31 [InventoryFromWarehouse][bannedmix2][BanneDSlay] - (Number: 00, Index: 6267, Level: 00, Serial: 0078DA3B, Option1: 0, Option2: 0, Option3: 0, NewOption: 000, SetOption: 000, JoHOption: 000, 380Option: 000, SocketOption: 255,255,255,255,255, SocketOptionBonus: 255)
12:25:34 [InventoryFromWarehouse][bannedmix2][BanneDSlay] - (Number: 00, Index: 6265, Level: 01, Serial: 00793B33, Option1: 0, Option2: 0, Option3: 0, NewOption: 000, SetOption: 000, JoHOption: 000, 380Option: 000, SocketOption: 255,255,255,255,255, SocketOptionBonus: 255)
12:25:35 [InventoryFromWarehouse][bannedmix2][BanneDSlay] - (Number: 00, Index: 6262, Level: 05, Serial: 00795E7B, Option1: 0, Option2: 0, Option3: 0, NewOption: 000, SetOption: 000, JoHOption: 000, 380Option: 000, SocketOption: 255,255,255,255,255, SocketOptionBonus: 255)
12:25:38 [InventoryFromWarehouse][bannedmix2][BanneDSlay] - (Number: 00, Index: 6262, Level: 03, Serial: 00761C0B, Option1: 0, Option2: 0, Option3: 0, NewOption: 000, SetOption: 000, JoHOption: 000, 380Option: 000, SocketOption: 255,255,255,255,255, SocketOptionBonus: 255)
12:25:40 [InventoryFromWarehouse][bannedmix2][BanneDSlay] - (Number: 00, Index: 6267, Level: 01, Serial: 00790F84, Option1: 0, Option2: 0, Option3: 0, NewOption: 000, SetOption: 000, JoHOption: 000, 380Option: 000, SocketOption: 255,255,255,255,255, SocketOptionBonus: 255)
12:25:45 [InventoryFromWarehouse][bannedmix2][BanneDSlay] - (Number: 00, Index: 6262, Level: 03, Serial: 00808B30, Option1: 0, Option2: 0, Option3: 0, NewOption: 000, SetOption: 000, JoHOption: 000, 380Option: 000, SocketOption: 255,255,255,255,255, SocketOptionBonus: 255)
12:25:47 [InventoryFromWarehouse][bannedmix2][BanneDSlay] - (Number: 00, Index: 6263, Level: 03, Serial: 00784E67, Option1: 0, Option2: 0, Option3: 0, NewOption: 000, SetOption: 000, JoHOption: 000, 380Option: 000, SocketOption: 255,255,255,255,255, SocketOptionBonus: 255)
12:25:48 [InventoryFromWarehouse][bannedmix2][BanneDSlay] - (Number: 00, Index: 6266, Level: 01, Serial: 0076D40D, Option1: 0, Option2: 0, Option3: 0, NewOption: 000, SetOption: 000, JoHOption: 000, 380Option: 000, SocketOption: 255,255,255,255,255, SocketOptionBonus: 255)
12:25:50 [InventoryFromWarehouse][bannedmix2][BanneDSlay] - (Number: 00, Index: 6264, Level: 01, Serial: 00773558, Option1: 0, Option2: 0, Option3: 0, NewOption: 000, SetOption: 000, JoHOption: 000, 380Option: 000, SocketOption: 255,255,255,255,255, SocketOptionBonus: 255)
12:25:52 [InventoryFromWarehouse][bannedmix2][BanneDSlay] - (Number: 00, Index: 6262, Level: 05, Serial: 0076D428, Option1: 0, Option2: 0, Option3: 0, NewOption: 000, SetOption: 000, JoHOption: 000, 380Option: 000, SocketOption: 255,255,255,255,255, SocketOptionBonus: 255)
12:25:54 [InventoryFromWarehouse][bannedmix2][BanneDSlay] - (Number: 00, Index: 6267, Level: 03, Serial: 007598BA, Option1: 0, Option2: 0, Option3: 0, NewOption: 000, SetOption: 000, JoHOption: 000, 380Option: 000, SocketOption: 255,255,255,255,255, SocketOptionBonus: 255)
12:25:56 [InventoryFromWarehouse][bannedmix2][BanneDSlay] - (Number: 00, Index: 6272, Level: 03, Serial: 00759893, Option1: 0, Option2: 0, Option3: 0, NewOption: 000, SetOption: 000, JoHOption: 000, 380Option: 000, SocketOption: 255,255,255,255,255, SocketOptionBonus: 255)
12:26:08 [InventoryFromWarehouse][bannedmix2][BanneDSlay] - (Number: 00, Index: 6272, Level: 02, Serial: 0075995C, Option1: 0, Option2: 0, Option3: 0, NewOption: 000, SetOption: 000, JoHOption: 000, 380Option: 000, SocketOption: 255,255,255,255,255, SocketOptionBonus: 255)
12:26:13 [InventoryFromWarehouse][bannedmix2][BanneDSlay] - (Number: 00, Index: 6264, Level: 02, Serial: 007C465A, Option1: 0, Option2: 0, Option3: 0, NewOption: 000, SetOption: 000, JoHOption: 000, 380Option: 000, SocketOption: 255,255,255,255,255, SocketOptionBonus: 255)
12:26:15 [InventoryFromWarehouse][bannedmix2][BanneDSlay] - (Number: 00, Index: 6264, Level: 02, Serial: 007E7476, Option1: 0, Option2: 0, Option3: 0, NewOption: 000, SetOption: 000, JoHOption: 000, 380Option: 000, SocketOption: 255,255,255,255,255, SocketOptionBonus: 255)
12:26:16 [InventoryFromWarehouse][bannedmix2][BanneDSlay] - (Number: 00, Index: 6266, Level: 02, Serial: 007B79DE, Option1: 0, Option2: 0, Option3: 0, NewOption: 000, SetOption: 000, JoHOption: 000, 380Option: 000, SocketOption: 255,255,255,255,255, SocketOptionBonus: 255)
12:26:20 [InventoryFromWarehouse][bannedmix2][BanneDSlay] - (Number: 00, Index: 6266, Level: 01, Serial: 007D072D, Option1: 0, Option2: 0, Option3: 0, NewOption: 000, SetOption: 000, JoHOption: 000, 380Option: 000, SocketOption: 255,255,255,255,255, SocketOptionBonus: 255)
12:26:24 [InventoryFromWarehouse][bannedmix2][BanneDSlay] - (Number: 00, Index: 6263, Level: 01, Serial: 007C57E4, Option1: 0, Option2: 0, Option3: 0, NewOption: 000, SetOption: 000, JoHOption: 000, 380Option: 000, SocketOption: 255,255,255,255,255, SocketOptionBonus: 255)
12:26:29 [InventoryFromWarehouse][bannedmix2][BanneDSlay] - (Number: 00, Index: 6264, Level: 01, Serial: 00795FC3, Option1: 0, Option2: 0, Option3: 0, NewOption: 000, SetOption: 000, JoHOption: 000, 380Option: 000, SocketOption: 255,255,255,255,255, SocketOptionBonus: 255)
12:26:30 [InventoryFromWarehouse][bannedmix2][BanneDSlay] - (Number: 00, Index: 6264, Level: 04, Serial: 00767749, Option1: 0, Option2: 0, Option3: 0, NewOption: 000, SetOption: 000, JoHOption: 000, 380Option: 000, SocketOption: 255,255,255,255,255, SocketOptionBonus: 255)
12:26:31 [InventoryFromWarehouse][bannedmix2][BanneDSlay] - (Number: 00, Index: 6265, Level: 00, Serial: 007A359A, Option1: 0, Option2: 0, Option3: 0, NewOption: 000, SetOption: 000, JoHOption: 000, 380Option: 000, SocketOption: 255,255,255,255,255, SocketOptionBonus: 255)
15:20:21 [WarehouseFromInventory][eutkd7][LlLlTH] - (Number: 01, Index: 6432, Level: 00, Serial: 007D2E82, Option1: 0, Option2: 0, Option3: 0, NewOption: 000, SetOption: 000, JoHOption: 000, 380Option: 000, SocketOption: 255,255,255,255,255, SocketOptionBonus: 255)
15:20:22 [WarehouseFromInventory][eutkd7][LlLlTH] - (Number: 01, Index: 6432, Level: 00, Serial: 008094D6, Option1: 0, Option2: 0, Option3: 0, NewOption: 000, SetOption: 000, JoHOption: 000, 380Option: 000, SocketOption: 255,255,255,255,255, SocketOptionBonus: 255)
15:20:22 [WarehouseFromInventory][eutkd7][LlLlTH] - (Number: 01, Index: 6432, Level: 00, Serial: 008069D3, Option1: 0, Option2: 0, Option3: 0, NewOption: 000, SetOption: 000, JoHOption: 000, 380Option: 000, SocketOption: 255,255,255,255,255, SocketOptionBonus: 255)
15:20:23 [WarehouseFromInventory][eutkd7][LlLlTH] - (Number: 01, Index: 6432, Level: 00, Serial: 007CBB91, Option1: 0, Option2: 0, Option3: 0, NewOption: 000, SetOption: 000, JoHOption: 000, 380Option: 000, SocketOption: 255,255,255,255,255, SocketOptionBonus: 255)
15:20:23 [WarehouseFromInventory][eutkd7][LlLlTH] - (Number: 01, Index: 6432, Level: 00, Serial: 0080B41F, Option1: 0, Option2: 0, Option3: 0, NewOption: 000, SetOption: 000, JoHOption: 000, 380Option: 000, SocketOption: 255,255,255,255,255, SocketOptionBonus: 255)
15:20:24 [WarehouseFromInventory][eutkd7][LlLlTH] - (Number: 01, Index: 6432, Level: 00, Serial: 0080DBBC, Option1: 0, Option2: 0, Option3: 0, NewOption: 000, SetOption: 000, JoHOption: 000, 380Option: 000, SocketOption: 255,255,255,255,255, SocketOptionBonus: 255)
15:20:25 [WarehouseFromInventory][eutkd7][LlLlTH] - (Number: 01, Index: 6432, Level: 00, Serial: 00810CB6, Option1: 0, Option2: 0, Option3: 0, NewOption: 000, SetOption: 000, JoHOption: 000, 380Option: 000, SocketOption: 255,255,255,255,255, SocketOptionBonus: 255)
15:20:26 [WarehouseFromInventory][eutkd7][LlLlTH] - (Number: 01, Index: 6432, Level: 00, Serial: 008130F0, Option1: 0, Option2: 0, Option3: 0, NewOption: 000, SetOption: 000, JoHOption: 000, 380Option: 000, SocketOption: 255,255,255,255,255, SocketOptionBonus: 255)
15:20:27 [WarehouseFromInventory][eutkd7][LlLlTH] - (Number: 01, Index: 6432, Level: 00, Serial: 007FE82E, Option1: 0, Option2: 0, Option3: 0, NewOption: 000, SetOption: 000, JoHOption: 000, 380Option: 000, SocketOption: 255,255,255,255,255, SocketOptionBonus: 255)
15:20:28 [WarehouseFromInventory][eutkd7][LlLlTH] - (Number: 01, Index: 6432, Level: 00, Serial: 008043AD, Option1: 0, Option2: 0, Option3: 0, NewOption: 000, SetOption: 000, JoHOption: 000, 380Option: 000, SocketOption: 255,255,255,255,255, SocketOptionBonus: 255)
15:20:29 [WarehouseFromInventory][eutkd7][LlLlTH] - (Number: 01, Index: 6432, Level: 00, Serial: 00802189, Option1: 0, Option2: 0, Option3: 0, NewOption: 000, SetOption: 000, JoHOption: 000, 380Option: 000, SocketOption: 255,255,255,255,255, SocketOptionBonus: 255)
15:20:29 [WarehouseFromInventory][eutkd7][LlLlTH] - (Number: 01, Index: 6432, Level: 00, Serial: 007FCF6A, Option1: 0, Option2: 0, Option3: 0, NewOption: 000, SetOption: 000, JoHOption: 000, 380Option: 000, SocketOption: 255,255,255,255,255, SocketOptionBonus: 255)
15:20:30 [WarehouseFromInventory][eutkd7][LlLlTH] - (Number: 01, Index: 6432, Level: 00, Serial: 007F9770, Option1: 0, Option2: 0, Option3: 0, NewOption: 000, SetOption: 000, JoHOption: 000, 380Option: 000, SocketOption: 255,255,255,255,255, SocketOptionBonus: 255)
15:20:30 [WarehouseFromInventory][eutkd7][LlLlTH] - (Number: 01, Index: 6432, Level: 00, Serial: 007F6DC7, Option1: 0, Option2: 0, Option3: 0, NewOption: 000, SetOption: 000, JoHOption: 000, 380Option: 000, SocketOption: 255,255,255,255,255, SocketOptionBonus: 255)
15:20:31 [WarehouseFromInventory][eutkd7][LlLlTH] - (Number: 01, Index: 6432, Level: 00, Serial: 007F3CA4, Option1: 0, Option2: 0, Option3: 0, NewOption: 000, SetOption: 000, JoHOption: 000, 380Option: 000, SocketOption: 255,255,255,255,255, SocketOptionBonus: 255)
21:33:18 [WarehouseFromInventory][bannedmix2][BanneDSlay] - (Number: 00, Index: 6270, Level: 03, Serial: 0075C93F, Option1: 0, Option2: 0, Option3: 0, NewOption: 000, SetOption: 000, JoHOption: 000, 380Option: 000, SocketOption: 255,255,255,255,255, SocketOptionBonus: 255)
21:33:19 [WarehouseFromInventory][bannedmix2][BanneDSlay] - (Number: 00, Index: 6268, Level: 01, Serial: 00761BCE, Option1: 0, Option2: 0, Option3: 0, NewOption: 000, SetOption: 000, JoHOption: 000, 380Option: 000, SocketOption: 255,255,255,255,255, SocketOptionBonus: 255)
21:33:20 [WarehouseFromInventory][bannedmix2][BanneDSlay] - (Number: 00, Index: 6271, Level: 01, Serial: 0077CB9A, Option1: 0, Option2: 0, Option3: 0, NewOption: 000, SetOption: 000, JoHOption: 000, 380Option: 000, SocketOption: 255,255,255,255,255, SocketOptionBonus: 255)
21:33:20 [WarehouseFromInventory][bannedmix2][BanneDSlay] - (Number: 00, Index: 6270, Level: 03, Serial: 008066FB, Option1: 0, Option2: 0, Option3: 0, NewOption: 000, SetOption: 000, JoHOption: 000, 380Option: 000, SocketOption: 255,255,255,255,255, SocketOptionBonus: 255)
21:33:21 [WarehouseFromInventory][bannedmix2][BanneDSlay] - (Number: 00, Index: 6270, Level: 04, Serial: 007C462F, Option1: 0, Option2: 0, Option3: 0, NewOption: 000, SetOption: 000, JoHOption: 000, 380Option: 000, SocketOption: 255,255,255,255,255, SocketOptionBonus: 255)
21:33:21 [WarehouseFromInventory][bannedmix2][BanneDSlay] - (Number: 00, Index: 6270, Level: 00, Serial: 007E1331, Option1: 0, Option2: 0, Option3: 0, NewOption: 000, SetOption: 000, JoHOption: 000, 380Option: 000, SocketOption: 255,255,255,255,255, SocketOptionBonus: 255)
21:33:21 [WarehouseFromInventory][bannedmix2][BanneDSlay] - (Number: 00, Index: 6269, Level: 00, Serial: 007CD543, Option1: 0, Option2: 0, Option3: 0, NewOption: 000, SetOption: 000, JoHOption: 000, 380Option: 000, SocketOption: 255,255,255,255,255, SocketOptionBonus: 255)
21:33:22 [WarehouseFromInventory][bannedmix2][BanneDSlay] - (Number: 00, Index: 6270, Level: 03, Serial: 007D8C3B, Option1: 0, Option2: 0, Option3: 0, NewOption: 000, SetOption: 000, JoHOption: 000, 380Option: 000, SocketOption: 255,255,255,255,255, SocketOptionBonus: 255)
21:33:22 [WarehouseFromInventory][bannedmix2][BanneDSlay] - (Number: 00, Index: 6273, Level: 02, Serial: 006C36B4, Option1: 0, Option2: 0, Option3: 0, NewOption: 000, SetOption: 000, JoHOption: 000, 380Option: 000, SocketOption: 255,255,255,255,255, SocketOptionBonus: 255)
21:33:23 [WarehouseFromInventory][bannedmix2][BanneDSlay] - (Number: 00, Index: 6271, Level: 03, Serial: 007D90B2, Option1: 0, Option2: 0, Option3: 0, NewOption: 000, SetOption: 000, JoHOption: 000, 380Option: 000, SocketOption: 255,255,255,255,255, SocketOptionBonus: 255)
21:33:29 [Drop][bannedmix2][BanneDSlay] - (Index: 7179, Level: 08, Serial: 0081681C, Option1: 0, Option2: 0, Option3: 0, NewOption: 000, SetOption: 000, JoHOption: 000, 380Option: 000, SocketOption: 255,255,255,255,255, SocketOptionBonus: 255)
