01:41:37 [Drop][xamego3][Arlequina] - (Index: 4097, Level: 00, Serial: 00811CB5, Option1: 0, Option2: 0, Option3: 0, NewOption: 000, SetOption: 000, JoHOption: 000, 380Option: 000, SocketOption: 255,255,255,255,255, SocketOptionBonus: 255)
01:46:28 [WarehouseFromInventory][xamego3][Arlequina] - (Number: 00, Index: 3102, Level: 00, Serial: 008101B8, Option1: 1, Option2: 1, Option3: 2, NewOption: 001, SetOption: 000, JoHOption: 000, 380Option: 000, SocketOption: 255,255,255,255,255, SocketOptionBonus: 255)
01:46:31 [WarehouseFromInventory][xamego3][Arlequina] - (Number: 00, Index: 6263, Level: 01, Serial: 00811DB1, Option1: 0, Option2: 0, Option3: 0, NewOption: 000, SetOption: 000, JoHOption: 000, 380Option: 000, SocketOption: 255,255,255,255,255, SocketOptionBonus: 255)
10:25:08 [Drop][maia3][Atirissa] - (Index: 6674, Level: 05, Serial: 0080EB32, Option1: 0, Option2: 0, Option3: 0, NewOption: 000, SetOption: 000, JoHOption: 000, 380Option: 000, SocketOption: 255,255,255,255,255, SocketOptionBonus: 255)
15:55:16 [Sell][ichigo20][Zulive] - (Index: 6274, Level: 00, Serial: 00746C96, Option1: 0, Option2: 0, Option3: 0, NewOption: 000, SetOption: 000, JoHOption: 000, 380Option: 000, SocketOption: 255,255,255,255,255, SocketOptionBonus: 255)
16:25:03 [InventoryFromWarehouse][Jorgelg4][MgJoRgIM] - (Number: 00, Index: 6395, Level: 00, Serial: 0057E954, Option1: 0, Option2: 0, Option3: 0, NewOption: 000, SetOption: 000, JoHOption: 000, 380Option: 000, SocketOption: 001,255,255,255,255, SocketOptionBonus: 020)
16:25:04 [InventoryFromWarehouse][Jorgelg4][MgJoRgIM] - (Number: 00, Index: 6395, Level: 00, Serial: 0058AA3F, Option1: 0, Option2: 0, Option3: 0, NewOption: 000, SetOption: 000, JoHOption: 000, 380Option: 000, SocketOption: 001,255,255,255,255, SocketOptionBonus: 020)
16:25:05 [InventoryFromWarehouse][Jorgelg4][MgJoRgIM] - (Number: 00, Index: 6385, Level: 00, Serial: 0057E95B, Option1: 0, Option2: 0, Option3: 0, NewOption: 000, SetOption: 000, JoHOption: 000, 380Option: 000, SocketOption: 001,255,255,255,255, SocketOptionBonus: 020)
16:25:09 [InventoryFromWarehouse][Jorgelg4][MgJoRgIM] - (Number: 00, Index: 6395, Level: 00, Serial: 0057E959, Option1: 0, Option2: 0, Option3: 0, NewOption: 000, SetOption: 000, JoHOption: 000, 380Option: 000, SocketOption: 001,255,255,255,255, SocketOptionBonus: 020)
16:25:12 [InventoryFromWarehouse][Jorgelg4][MgJoRgIM] - (Number: 00, Index: 6395, Level: 00, Serial: 00546864, Option1: 0, Option2: 0, Option3: 0, NewOption: 000, SetOption: 000, JoHOption: 000, 380Option: 000, SocketOption: 001,255,255,255,255, SocketOptionBonus: 019)
16:25:12 [InventoryFromWarehouse][Jorgelg4][MgJoRgIM] - (Number: 00, Index: 6395, Level: 00, Serial: 00567A63, Option1: 0, Option2: 0, Option3: 0, NewOption: 000, SetOption: 000, JoHOption: 000, 380Option: 000, SocketOption: 001,255,255,255,255, SocketOptionBonus: 019)
16:25:13 [InventoryFromWarehouse][Jorgelg4][MgJoRgIM] - (Number: 00, Index: 6395, Level: 00, Serial: 0054789E, Option1: 0, Option2: 0, Option3: 0, NewOption: 000, SetOption: 000, JoHOption: 000, 380Option: 000, SocketOption: 001,255,255,255,255, SocketOptionBonus: 018)
16:25:16 [InventoryFromWarehouse][Jorgelg4][MgJoRgIM] - (Number: 00, Index: 6385, Level: 00, Serial: 00546873, Option1: 0, Option2: 0, Option3: 0, NewOption: 000, SetOption: 000, JoHOption: 000, 380Option: 000, SocketOption: 001,255,255,255,255, SocketOptionBonus: 017)
16:25:16 [InventoryFromWarehouse][Jorgelg4][MgJoRgIM] - (Number: 00, Index: 6385, Level: 00, Serial: 00567AFE, Option1: 0, Option2: 0, Option3: 0, NewOption: 000, SetOption: 000, JoHOption: 000, 380Option: 000, SocketOption: 001,255,255,255,255, SocketOptionBonus: 017)
16:25:22 [InventoryFromWarehouse][Jorgelg4][MgJoRgIM] - (Number: 00, Index: 6385, Level: 00, Serial: 0054681C, Option1: 0, Option2: 0, Option3: 0, NewOption: 000, SetOption: 000, JoHOption: 000, 380Option: 000, SocketOption: 001,255,255,255,255, SocketOptionBonus: 020)
16:25:24 [InventoryFromWarehouse][Jorgelg4][MgJoRgIM] - (Number: 00, Index: 6395, Level: 00, Serial: 00554B8A, Option1: 0, Option2: 0, Option3: 0, NewOption: 000, SetOption: 000, JoHOption: 000, 380Option: 000, SocketOption: 001,255,255,255,255, SocketOptionBonus: 020)
16:25:26 [InventoryFromWarehouse][Jorgelg4][MgJoRgIM] - (Number: 00, Index: 6385, Level: 00, Serial: 0057E955, Option1: 0, Option2: 0, Option3: 0, NewOption: 000, SetOption: 000, JoHOption: 000, 380Option: 000, SocketOption: 001,255,255,255,255, SocketOptionBonus: 018)
16:36:11 [InventoryFromWarehouse][s3farmen1][TheFIRST] - (Number: 01, Index: 7184, Level: 00, Serial: 007F6AA9, Option1: 0, Option2: 0, Option3: 0, NewOption: 000, SetOption: 000, JoHOption: 000, 380Option: 000, SocketOption: 255,255,255,255,255, SocketOptionBonus: 255)
17:00:10 [WarehouseFromInventory][maindl][XxxX] - (Number: 00, Index: 6708, Level: 00, Serial: 0080D79F, Option1: 0, Option2: 0, Option3: 0, NewOption: 000, SetOption: 000, JoHOption: 000, 380Option: 000, SocketOption: 255,255,255,255,255, SocketOptionBonus: 255)
17:00:10 [WarehouseFromInventory][maindl][XxxX] - (Number: 00, Index: 6708, Level: 00, Serial: 0080D8A2, Option1: 0, Option2: 0, Option3: 0, NewOption: 000, SetOption: 000, JoHOption: 000, 380Option: 000, SocketOption: 255,255,255,255,255, SocketOptionBonus: 255)
17:00:11 [WarehouseFromInventory][maindl][XxxX] - (Number: 00, Index: 6708, Level: 00, Serial: 00810D5F, Option1: 0, Option2: 0, Option3: 0, NewOption: 000, SetOption: 000, JoHOption: 000, 380Option: 000, SocketOption: 255,255,255,255,255, SocketOptionBonus: 255)
17:00:12 [WarehouseFromInventory][maindl][XxxX] - (Number: 00, Index: 6708, Level: 00, Serial: 0080A4B0, Option1: 0, Option2: 0, Option3: 0, NewOption: 000, SetOption: 000, JoHOption: 000, 380Option: 000, SocketOption: 255,255,255,255,255, SocketOptionBonus: 255)
17:00:13 [WarehouseFromInventory][maindl][XxxX] - (Number: 00, Index: 6708, Level: 00, Serial: 0081149B, Option1: 0, Option2: 0, Option3: 0, NewOption: 000, SetOption: 000, JoHOption: 000, 380Option: 000, SocketOption: 255,255,255,255,255, SocketOptionBonus: 255)
17:00:14 [WarehouseFromInventory][maindl][XxxX] - (Number: 00, Index: 6708, Level: 00, Serial: 00808F5E, Option1: 0, Option2: 0, Option3: 0, NewOption: 000, SetOption: 000, JoHOption: 000, 380Option: 000, SocketOption: 255,255,255,255,255, SocketOptionBonus: 255)
17:00:14 [WarehouseFromInventory][maindl][XxxX] - (Number: 00, Index: 6708, Level: 00, Serial: 00808CD8, Option1: 0, Option2: 0, Option3: 0, NewOption: 000, SetOption: 000, JoHOption: 000, 380Option: 000, SocketOption: 255,255,255,255,255, SocketOptionBonus: 255)
17:00:15 [WarehouseFromInventory][maindl][XxxX] - (Number: 00, Index: 6708, Level: 00, Serial: 0080D85A, Option1: 0, Option2: 0, Option3: 0, NewOption: 000, SetOption: 000, JoHOption: 000, 380Option: 000, SocketOption: 255,255,255,255,255, SocketOptionBonus: 255)
17:00:23 [WarehouseFromInventory][maindl][XxxX] - (Number: 00, Index: 6708, Level: 00, Serial: 00807F90, Option1: 0, Option2: 0, Option3: 0, NewOption: 000, SetOption: 000, JoHOption: 000, 380Option: 000, SocketOption: 255,255,255,255,255, SocketOptionBonus: 255)
17:00:23 [WarehouseFromInventory][maindl][XxxX] - (Number: 00, Index: 6708, Level: 00, Serial: 007FD4FF, Option1: 0, Option2: 0, Option3: 0, NewOption: 000, SetOption: 000, JoHOption: 000, 380Option: 000, SocketOption: 255,255,255,255,255, SocketOptionBonus: 255)
17:00:24 [WarehouseFromInventory][maindl][XxxX] - (Number: 00, Index: 6708, Level: 00, Serial: 008018E4, Option1: 0, Option2: 0, Option3: 0, NewOption: 000, SetOption: 000, JoHOption: 000, 380Option: 000, SocketOption: 255,255,255,255,255, SocketOptionBonus: 255)
17:00:25 [WarehouseFromInventory][maindl][XxxX] - (Number: 00, Index: 6708, Level: 00, Serial: 007FF3C1, Option1: 0, Option2: 0, Option3: 0, NewOption: 000, SetOption: 000, JoHOption: 000, 380Option: 000, SocketOption: 255,255,255,255,255, SocketOptionBonus: 255)
17:00:25 [WarehouseFromInventory][maindl][XxxX] - (Number: 00, Index: 6708, Level: 00, Serial: 00802EA0, Option1: 0, Option2: 0, Option3: 0, NewOption: 000, SetOption: 000, JoHOption: 000, 380Option: 000, SocketOption: 255,255,255,255,255, SocketOptionBonus: 255)
17:00:26 [WarehouseFromInventory][maindl][XxxX] - (Number: 00, Index: 6708, Level: 00, Serial: 00802ADC, Option1: 0, Option2: 0, Option3: 0, NewOption: 000, SetOption: 000, JoHOption: 000, 380Option: 000, SocketOption: 255,255,255,255,255, SocketOptionBonus: 255)
17:00:26 [WarehouseFromInventory][maindl][XxxX] - (Number: 00, Index: 6708, Level: 00, Serial: 00803A7F, Option1: 0, Option2: 0, Option3: 0, NewOption: 000, SetOption: 000, JoHOption: 000, 380Option: 000, SocketOption: 255,255,255,255,255, SocketOptionBonus: 255)
17:03:45 [WarehouseFromInventory][Ladimar420][YoDaime] - (Number: 00, Index: 7270, Level: 00, Serial: 007EF3B2, Option1: 0, Option2: 0, Option3: 0, NewOption: 000, SetOption: 000, JoHOption: 000, 380Option: 000, SocketOption: 255,255,255,255,255, SocketOptionBonus: 255)
17:03:46 [WarehouseFromInventory][Ladimar420][YoDaime] - (Number: 00, Index: 7270, Level: 00, Serial: 007DA81D, Option1: 0, Option2: 0, Option3: 0, NewOption: 000, SetOption: 000, JoHOption: 000, 380Option: 000, SocketOption: 255,255,255,255,255, SocketOptionBonus: 255)
17:03:47 [WarehouseFromInventory][Ladimar420][YoDaime] - (Number: 00, Index: 7270, Level: 00, Serial: 007E2ECF, Option1: 0, Option2: 0, Option3: 0, NewOption: 000, SetOption: 000, JoHOption: 000, 380Option: 000, SocketOption: 255,255,255,255,255, SocketOptionBonus: 255)
17:03:48 [WarehouseFromInventory][Ladimar420][YoDaime] - (Number: 00, Index: 7270, Level: 00, Serial: 008114CD, Option1: 0, Option2: 0, Option3: 0, NewOption: 000, SetOption: 000, JoHOption: 000, 380Option: 000, SocketOption: 255,255,255,255,255, SocketOptionBonus: 255)
17:03:49 [WarehouseFromInventory][Ladimar420][YoDaime] - (Number: 00, Index: 7270, Level: 00, Serial: 0080CF3D, Option1: 0, Option2: 0, Option3: 0, NewOption: 000, SetOption: 000, JoHOption: 000, 380Option: 000, SocketOption: 255,255,255,255,255, SocketOptionBonus: 255)
17:03:49 [WarehouseFromInventory][Ladimar420][YoDaime] - (Number: 00, Index: 7270, Level: 00, Serial: 007C809D, Option1: 0, Option2: 0, Option3: 0, NewOption: 000, SetOption: 000, JoHOption: 000, 380Option: 000, SocketOption: 255,255,255,255,255, SocketOptionBonus: 255)
17:03:51 [WarehouseFromInventory][Ladimar420][YoDaime] - (Number: 00, Index: 7270, Level: 00, Serial: 0080E61F, Option1: 0, Option2: 0, Option3: 0, NewOption: 000, SetOption: 000, JoHOption: 000, 380Option: 000, SocketOption: 255,255,255,255,255, SocketOptionBonus: 255)
17:03:52 [WarehouseFromInventory][Ladimar420][YoDaime] - (Number: 00, Index: 7270, Level: 00, Serial: 008096E6, Option1: 0, Option2: 0, Option3: 0, NewOption: 000, SetOption: 000, JoHOption: 000, 380Option: 000, SocketOption: 255,255,255,255,255, SocketOptionBonus: 255)
17:03:53 [WarehouseFromInventory][Ladimar420][YoDaime] - (Number: 00, Index: 7270, Level: 00, Serial: 007D3655, Option1: 0, Option2: 0, Option3: 0, NewOption: 000, SetOption: 000, JoHOption: 000, 380Option: 000, SocketOption: 255,255,255,255,255, SocketOptionBonus: 255)
17:08:12 [WarehouseFromInventory][Malback1][Fecebook] - (Number: 00, Index: 7122, Level: 00, Serial: 0080D03B, Option1: 0, Option2: 0, Option3: 0, NewOption: 000, SetOption: 000, JoHOption: 000, 380Option: 000, SocketOption: 255,255,255,255,255, SocketOptionBonus: 255)
17:08:13 [WarehouseFromInventory][Malback1][Fecebook] - (Number: 00, Index: 7122, Level: 00, Serial: 0080B889, Option1: 0, Option2: 0, Option3: 0, NewOption: 000, SetOption: 000, JoHOption: 000, 380Option: 000, SocketOption: 255,255,255,255,255, SocketOptionBonus: 255)
17:08:14 [WarehouseFromInventory][Malback1][Fecebook] - (Number: 00, Index: 7122, Level: 00, Serial: 00808DA4, Option1: 0, Option2: 0, Option3: 0, NewOption: 000, SetOption: 000, JoHOption: 000, 380Option: 000, SocketOption: 255,255,255,255,255, SocketOptionBonus: 255)
17:08:15 [WarehouseFromInventory][Malback1][Fecebook] - (Number: 00, Index: 7122, Level: 00, Serial: 0080AC20, Option1: 0, Option2: 0, Option3: 0, NewOption: 000, SetOption: 000, JoHOption: 000, 380Option: 000, SocketOption: 255,255,255,255,255, SocketOptionBonus: 255)
17:08:15 [WarehouseFromInventory][Malback1][Fecebook] - (Number: 00, Index: 7122, Level: 00, Serial: 0080166B, Option1: 0, Option2: 0, Option3: 0, NewOption: 000, SetOption: 000, JoHOption: 000, 380Option: 000, SocketOption: 255,255,255,255,255, SocketOptionBonus: 255)
17:08:16 [WarehouseFromInventory][Malback1][Fecebook] - (Number: 00, Index: 7122, Level: 00, Serial: 00805A00, Option1: 0, Option2: 0, Option3: 0, NewOption: 000, SetOption: 000, JoHOption: 000, 380Option: 000, SocketOption: 255,255,255,255,255, SocketOptionBonus: 255)
17:08:17 [WarehouseFromInventory][Malback1][Fecebook] - (Number: 00, Index: 7122, Level: 00, Serial: 00806181, Option1: 0, Option2: 0, Option3: 0, NewOption: 000, SetOption: 000, JoHOption: 000, 380Option: 000, SocketOption: 255,255,255,255,255, SocketOptionBonus: 255)
17:08:17 [WarehouseFromInventory][Malback1][Fecebook] - (Number: 00, Index: 7122, Level: 00, Serial: 007E93D3, Option1: 0, Option2: 0, Option3: 0, NewOption: 000, SetOption: 000, JoHOption: 000, 380Option: 000, SocketOption: 255,255,255,255,255, SocketOptionBonus: 255)
17:08:18 [WarehouseFromInventory][Malback1][Fecebook] - (Number: 00, Index: 7122, Level: 00, Serial: 0080DF6D, Option1: 0, Option2: 0, Option3: 0, NewOption: 000, SetOption: 000, JoHOption: 000, 380Option: 000, SocketOption: 255,255,255,255,255, SocketOptionBonus: 255)
17:08:19 [WarehouseFromInventory][Malback1][Fecebook] - (Number: 00, Index: 7122, Level: 00, Serial: 008046A4, Option1: 0, Option2: 0, Option3: 0, NewOption: 000, SetOption: 000, JoHOption: 000, 380Option: 000, SocketOption: 255,255,255,255,255, SocketOptionBonus: 255)
17:08:19 [WarehouseFromInventory][Malback1][Fecebook] - (Number: 00, Index: 7122, Level: 00, Serial: 0080633C, Option1: 0, Option2: 0, Option3: 0, NewOption: 000, SetOption: 000, JoHOption: 000, 380Option: 000, SocketOption: 255,255,255,255,255, SocketOptionBonus: 255)
17:08:20 [WarehouseFromInventory][Malback1][Fecebook] - (Number: 00, Index: 7122, Level: 00, Serial: 0080E1D5, Option1: 0, Option2: 0, Option3: 0, NewOption: 000, SetOption: 000, JoHOption: 000, 380Option: 000, SocketOption: 255,255,255,255,255, SocketOptionBonus: 255)
17:08:21 [WarehouseFromInventory][Malback1][Fecebook] - (Number: 00, Index: 7122, Level: 00, Serial: 0080D63B, Option1: 0, Option2: 0, Option3: 0, NewOption: 000, SetOption: 000, JoHOption: 000, 380Option: 000, SocketOption: 255,255,255,255,255, SocketOptionBonus: 255)
17:08:21 [WarehouseFromInventory][Malback1][Fecebook] - (Number: 00, Index: 6159, Level: 00, Serial: 00744659, Option1: 0, Option2: 0, Option3: 0, NewOption: 000, SetOption: 000, JoHOption: 000, 380Option: 000, SocketOption: 255,255,255,255,255, SocketOptionBonus: 255)
17:08:22 [WarehouseFromInventory][Malback1][Fecebook] - (Number: 00, Index: 6159, Level: 00, Serial: 0072F452, Option1: 0, Option2: 0, Option3: 0, NewOption: 000, SetOption: 000, JoHOption: 000, 380Option: 000, SocketOption: 255,255,255,255,255, SocketOptionBonus: 255)
17:08:22 [WarehouseFromInventory][Malback1][Fecebook] - (Number: 00, Index: 7182, Level: 00, Serial: 0072B737, Option1: 0, Option2: 0, Option3: 0, NewOption: 000, SetOption: 000, JoHOption: 000, 380Option: 000, SocketOption: 255,255,255,255,255, SocketOptionBonus: 255)
17:08:23 [WarehouseFromInventory][Malback1][Fecebook] - (Number: 00, Index: 7182, Level: 00, Serial: 007433AF, Option1: 0, Option2: 0, Option3: 0, NewOption: 000, SetOption: 000, JoHOption: 000, 380Option: 000, SocketOption: 255,255,255,255,255, SocketOptionBonus: 255)
17:08:23 [WarehouseFromInventory][Malback1][Fecebook] - (Number: 00, Index: 7182, Level: 00, Serial: 006A648F, Option1: 0, Option2: 0, Option3: 0, NewOption: 000, SetOption: 000, JoHOption: 000, 380Option: 000, SocketOption: 255,255,255,255,255, SocketOptionBonus: 255)
17:08:25 [WarehouseFromInventory][Malback1][Fecebook] - (Number: 00, Index: 7182, Level: 00, Serial: 00752205, Option1: 0, Option2: 0, Option3: 0, NewOption: 000, SetOption: 000, JoHOption: 000, 380Option: 000, SocketOption: 255,255,255,255,255, SocketOptionBonus: 255)
17:08:25 [WarehouseFromInventory][Malback1][Fecebook] - (Number: 00, Index: 7190, Level: 00, Serial: 00747FEF, Option1: 0, Option2: 0, Option3: 0, NewOption: 000, SetOption: 000, JoHOption: 000, 380Option: 000, SocketOption: 255,255,255,255,255, SocketOptionBonus: 255)
17:08:26 [WarehouseFromInventory][Malback1][Fecebook] - (Number: 00, Index: 6159, Level: 00, Serial: 00718541, Option1: 0, Option2: 0, Option3: 0, NewOption: 000, SetOption: 000, JoHOption: 000, 380Option: 000, SocketOption: 255,255,255,255,255, SocketOptionBonus: 255)
17:08:27 [WarehouseFromInventory][Malback1][Fecebook] - (Number: 00, Index: 6159, Level: 00, Serial: 00752812, Option1: 0, Option2: 0, Option3: 0, NewOption: 000, SetOption: 000, JoHOption: 000, 380Option: 000, SocketOption: 255,255,255,255,255, SocketOptionBonus: 255)
17:08:28 [WarehouseFromInventory][Malback1][Fecebook] - (Number: 00, Index: 6159, Level: 00, Serial: 006D60C1, Option1: 0, Option2: 0, Option3: 0, NewOption: 000, SetOption: 000, JoHOption: 000, 380Option: 000, SocketOption: 255,255,255,255,255, SocketOptionBonus: 255)
17:08:30 [WarehouseFromInventory][Malback1][Fecebook] - (Number: 00, Index: 6159, Level: 00, Serial: 006CF278, Option1: 0, Option2: 0, Option3: 0, NewOption: 000, SetOption: 000, JoHOption: 000, 380Option: 000, SocketOption: 255,255,255,255,255, SocketOptionBonus: 255)
17:08:30 [WarehouseFromInventory][Malback1][Fecebook] - (Number: 00, Index: 7182, Level: 00, Serial: 0070921A, Option1: 0, Option2: 0, Option3: 0, NewOption: 000, SetOption: 000, JoHOption: 000, 380Option: 000, SocketOption: 255,255,255,255,255, SocketOptionBonus: 255)
17:21:21 [Drop][Malback4][Naruto] - (Index: 1545, Level: 00, Serial: 00808B41, Option1: 0, Option2: 0, Option3: 0, NewOption: 000, SetOption: 000, JoHOption: 000, 380Option: 000, SocketOption: 255,255,255,255,255, SocketOptionBonus: 255)
17:25:55 [WarehouseFromInventory][mainee][Samu] - (Number: 00, Index: 6670, Level: 00, Serial: 0080CA20, Option1: 0, Option2: 0, Option3: 0, NewOption: 000, SetOption: 000, JoHOption: 000, 380Option: 000, SocketOption: 255,255,255,255,255, SocketOptionBonus: 255)
17:25:55 [WarehouseFromInventory][mainee][Samu] - (Number: 00, Index: 6670, Level: 00, Serial: 0080B50E, Option1: 0, Option2: 0, Option3: 0, NewOption: 000, SetOption: 000, JoHOption: 000, 380Option: 000, SocketOption: 255,255,255,255,255, SocketOptionBonus: 255)
17:25:56 [WarehouseFromInventory][mainee][Samu] - (Number: 00, Index: 6670, Level: 00, Serial: 0080A328, Option1: 0, Option2: 0, Option3: 0, NewOption: 000, SetOption: 000, JoHOption: 000, 380Option: 000, SocketOption: 255,255,255,255,255, SocketOptionBonus: 255)
17:25:56 [WarehouseFromInventory][mainee][Samu] - (Number: 00, Index: 6670, Level: 00, Serial: 008097D6, Option1: 0, Option2: 0, Option3: 0, NewOption: 000, SetOption: 000, JoHOption: 000, 380Option: 000, SocketOption: 255,255,255,255,255, SocketOptionBonus: 255)
17:25:57 [WarehouseFromInventory][mainee][Samu] - (Number: 00, Index: 6670, Level: 00, Serial: 0080A46C, Option1: 0, Option2: 0, Option3: 0, NewOption: 000, SetOption: 000, JoHOption: 000, 380Option: 000, SocketOption: 255,255,255,255,255, SocketOptionBonus: 255)
17:25:57 [WarehouseFromInventory][mainee][Samu] - (Number: 00, Index: 6670, Level: 00, Serial: 00808EBB, Option1: 0, Option2: 0, Option3: 0, NewOption: 000, SetOption: 000, JoHOption: 000, 380Option: 000, SocketOption: 255,255,255,255,255, SocketOptionBonus: 255)
17:26:05 [WarehouseFromInventory][mainee][Samu] - (Number: 00, Index: 6670, Level: 00, Serial: 00809E9B, Option1: 0, Option2: 0, Option3: 0, NewOption: 000, SetOption: 000, JoHOption: 000, 380Option: 000, SocketOption: 255,255,255,255,255, SocketOptionBonus: 255)
17:26:06 [WarehouseFromInventory][mainee][Samu] - (Number: 00, Index: 6670, Level: 00, Serial: 00809C3E, Option1: 0, Option2: 0, Option3: 0, NewOption: 000, SetOption: 000, JoHOption: 000, 380Option: 000, SocketOption: 255,255,255,255,255, SocketOptionBonus: 255)
17:26:07 [WarehouseFromInventory][mainee][Samu] - (Number: 00, Index: 6670, Level: 00, Serial: 0080BB98, Option1: 0, Option2: 0, Option3: 0, NewOption: 000, SetOption: 000, JoHOption: 000, 380Option: 000, SocketOption: 255,255,255,255,255, SocketOptionBonus: 255)
17:26:08 [Drop][mainee][Samu] - (Index: 7179, Level: 10, Serial: 0080A066, Option1: 0, Option2: 0, Option3: 0, NewOption: 000, SetOption: 000, JoHOption: 000, 380Option: 000, SocketOption: 255,255,255,255,255, SocketOptionBonus: 255)
17:26:09 [Drop][mainee][Samu] - (Index: 7179, Level: 10, Serial: 00809142, Option1: 0, Option2: 0, Option3: 0, NewOption: 000, SetOption: 000, JoHOption: 000, 380Option: 000, SocketOption: 255,255,255,255,255, SocketOptionBonus: 255)
17:26:10 [Drop][mainee][Samu] - (Index: 7179, Level: 10, Serial: 00809143, Option1: 0, Option2: 0, Option3: 0, NewOption: 000, SetOption: 000, JoHOption: 000, 380Option: 000, SocketOption: 255,255,255,255,255, SocketOptionBonus: 255)
17:26:12 [Drop][mainee][Samu] - (Index: 7179, Level: 10, Serial: 0080E6DD, Option1: 0, Option2: 0, Option3: 0, NewOption: 000, SetOption: 000, JoHOption: 000, 380Option: 000, SocketOption: 255,255,255,255,255, SocketOptionBonus: 255)
17:26:13 [Drop][mainee][Samu] - (Index: 7179, Level: 10, Serial: 0080EE96, Option1: 0, Option2: 0, Option3: 0, NewOption: 000, SetOption: 000, JoHOption: 000, 380Option: 000, SocketOption: 255,255,255,255,255, SocketOptionBonus: 255)
17:26:16 [Drop][mainee][Samu] - (Index: 7179, Level: 10, Serial: 0080EFF0, Option1: 0, Option2: 0, Option3: 0, NewOption: 000, SetOption: 000, JoHOption: 000, 380Option: 000, SocketOption: 255,255,255,255,255, SocketOptionBonus: 255)
17:26:19 [Drop][mainee][Samu] - (Index: 7179, Level: 10, Serial: 0080BEA1, Option1: 0, Option2: 0, Option3: 0, NewOption: 000, SetOption: 000, JoHOption: 000, 380Option: 000, SocketOption: 255,255,255,255,255, SocketOptionBonus: 255)
17:26:21 [Drop][mainee][Samu] - (Index: 7179, Level: 10, Serial: 0080B4BF, Option1: 0, Option2: 0, Option3: 0, NewOption: 000, SetOption: 000, JoHOption: 000, 380Option: 000, SocketOption: 255,255,255,255,255, SocketOptionBonus: 255)
17:26:33 [InventoryFromWarehouse][mainee][Samu] - (Number: 00, Index: 7179, Level: 05, Serial: 00702F5D, Option1: 0, Option2: 0, Option3: 0, NewOption: 000, SetOption: 000, JoHOption: 000, 380Option: 000, SocketOption: 255,255,255,255,255, SocketOptionBonus: 255)
17:26:34 [InventoryFromWarehouse][mainee][Samu] - (Number: 00, Index: 7179, Level: 06, Serial: 0072995B, Option1: 0, Option2: 0, Option3: 0, NewOption: 000, SetOption: 000, JoHOption: 000, 380Option: 000, SocketOption: 255,255,255,255,255, SocketOptionBonus: 255)
17:26:35 [InventoryFromWarehouse][mainee][Samu] - (Number: 00, Index: 7179, Level: 05, Serial: 00731405, Option1: 0, Option2: 0, Option3: 0, NewOption: 000, SetOption: 000, JoHOption: 000, 380Option: 000, SocketOption: 255,255,255,255,255, SocketOptionBonus: 255)
17:26:35 [InventoryFromWarehouse][mainee][Samu] - (Number: 00, Index: 7179, Level: 05, Serial: 0070BDF0, Option1: 0, Option2: 0, Option3: 0, NewOption: 000, SetOption: 000, JoHOption: 000, 380Option: 000, SocketOption: 255,255,255,255,255, SocketOptionBonus: 255)
17:26:36 [InventoryFromWarehouse][mainee][Samu] - (Number: 00, Index: 7179, Level: 06, Serial: 007159BC, Option1: 0, Option2: 0, Option3: 0, NewOption: 000, SetOption: 000, JoHOption: 000, 380Option: 000, SocketOption: 255,255,255,255,255, SocketOptionBonus: 255)
17:26:36 [InventoryFromWarehouse][mainee][Samu] - (Number: 00, Index: 7179, Level: 05, Serial: 00714FCD, Option1: 0, Option2: 0, Option3: 0, NewOption: 000, SetOption: 000, JoHOption: 000, 380Option: 000, SocketOption: 255,255,255,255,255, SocketOptionBonus: 255)
17:26:38 [InventoryFromWarehouse][mainee][Samu] - (Number: 00, Index: 7179, Level: 05, Serial: 0070945D, Option1: 0, Option2: 0, Option3: 0, NewOption: 000, SetOption: 000, JoHOption: 000, 380Option: 000, SocketOption: 255,255,255,255,255, SocketOptionBonus: 255)
17:26:38 [InventoryFromWarehouse][mainee][Samu] - (Number: 00, Index: 7179, Level: 06, Serial: 0071D25F, Option1: 0, Option2: 0, Option3: 0, NewOption: 000, SetOption: 000, JoHOption: 000, 380Option: 000, SocketOption: 255,255,255,255,255, SocketOptionBonus: 255)
17:26:39 [InventoryFromWarehouse][mainee][Samu] - (Number: 00, Index: 7179, Level: 06, Serial: 00732FF1, Option1: 0, Option2: 0, Option3: 0, NewOption: 000, SetOption: 000, JoHOption: 000, 380Option: 000, SocketOption: 255,255,255,255,255, SocketOptionBonus: 255)
17:26:39 [InventoryFromWarehouse][mainee][Samu] - (Number: 00, Index: 7179, Level: 05, Serial: 0071C4BE, Option1: 0, Option2: 0, Option3: 0, NewOption: 000, SetOption: 000, JoHOption: 000, 380Option: 000, SocketOption: 255,255,255,255,255, SocketOptionBonus: 255)
17:26:40 [InventoryFromWarehouse][mainee][Samu] - (Number: 00, Index: 7179, Level: 06, Serial: 007084A1, Option1: 0, Option2: 0, Option3: 0, NewOption: 000, SetOption: 000, JoHOption: 000, 380Option: 000, SocketOption: 255,255,255,255,255, SocketOptionBonus: 255)
17:26:40 [InventoryFromWarehouse][mainee][Samu] - (Number: 00, Index: 7179, Level: 06, Serial: 0071362A, Option1: 0, Option2: 0, Option3: 0, NewOption: 000, SetOption: 000, JoHOption: 000, 380Option: 000, SocketOption: 255,255,255,255,255, SocketOptionBonus: 255)
17:26:41 [InventoryFromWarehouse][mainee][Samu] - (Number: 00, Index: 7179, Level: 05, Serial: 00730341, Option1: 0, Option2: 0, Option3: 0, NewOption: 000, SetOption: 000, JoHOption: 000, 380Option: 000, SocketOption: 255,255,255,255,255, SocketOptionBonus: 255)
17:26:41 [InventoryFromWarehouse][mainee][Samu] - (Number: 00, Index: 7179, Level: 06, Serial: 007008CF, Option1: 0, Option2: 0, Option3: 0, NewOption: 000, SetOption: 000, JoHOption: 000, 380Option: 000, SocketOption: 255,255,255,255,255, SocketOptionBonus: 255)
17:26:42 [InventoryFromWarehouse][mainee][Samu] - (Number: 00, Index: 7179, Level: 05, Serial: 0072987A, Option1: 0, Option2: 0, Option3: 0, NewOption: 000, SetOption: 000, JoHOption: 000, 380Option: 000, SocketOption: 255,255,255,255,255, SocketOptionBonus: 255)
17:26:43 [InventoryFromWarehouse][mainee][Samu] - (Number: 00, Index: 7179, Level: 06, Serial: 00706668, Option1: 0, Option2: 0, Option3: 0, NewOption: 000, SetOption: 000, JoHOption: 000, 380Option: 000, SocketOption: 255,255,255,255,255, SocketOptionBonus: 255)
17:26:44 [InventoryFromWarehouse][mainee][Samu] - (Number: 00, Index: 7179, Level: 05, Serial: 0072A2AF, Option1: 0, Option2: 0, Option3: 0, NewOption: 000, SetOption: 000, JoHOption: 000, 380Option: 000, SocketOption: 255,255,255,255,255, SocketOptionBonus: 255)
17:26:46 [InventoryFromWarehouse][mainee][Samu] - (Number: 00, Index: 3761, Level: 00, Serial: 006B22A1, Option1: 0, Option2: 1, Option3: 0, NewOption: 000, SetOption: 005, JoHOption: 000, 380Option: 000, SocketOption: 255,255,255,255,255, SocketOptionBonus: 255)
17:26:47 [InventoryFromWarehouse][mainee][Samu] - (Number: 00, Index: 7179, Level: 05, Serial: 0071BEB3, Option1: 0, Option2: 0, Option3: 0, NewOption: 000, SetOption: 000, JoHOption: 000, 380Option: 000, SocketOption: 255,255,255,255,255, SocketOptionBonus: 255)
17:26:48 [InventoryFromWarehouse][mainee][Samu] - (Number: 00, Index: 7179, Level: 06, Serial: 00717AAE, Option1: 0, Option2: 0, Option3: 0, NewOption: 000, SetOption: 000, JoHOption: 000, 380Option: 000, SocketOption: 255,255,255,255,255, SocketOptionBonus: 255)
17:26:49 [InventoryFromWarehouse][mainee][Samu] - (Number: 00, Index: 7179, Level: 06, Serial: 00731D86, Option1: 0, Option2: 0, Option3: 0, NewOption: 000, SetOption: 000, JoHOption: 000, 380Option: 000, SocketOption: 255,255,255,255,255, SocketOptionBonus: 255)
17:26:49 [InventoryFromWarehouse][mainee][Samu] - (Number: 00, Index: 7179, Level: 06, Serial: 00725ADE, Option1: 0, Option2: 0, Option3: 0, NewOption: 000, SetOption: 000, JoHOption: 000, 380Option: 000, SocketOption: 255,255,255,255,255, SocketOptionBonus: 255)
17:26:50 [InventoryFromWarehouse][mainee][Samu] - (Number: 00, Index: 7179, Level: 06, Serial: 007292D2, Option1: 0, Option2: 0, Option3: 0, NewOption: 000, SetOption: 000, JoHOption: 000, 380Option: 000, SocketOption: 255,255,255,255,255, SocketOptionBonus: 255)
17:26:54 [WarehouseFromInventory][mainee][Samu] - (Number: 00, Index: 6670, Level: 00, Serial: 0080A485, Option1: 0, Option2: 0, Option3: 0, NewOption: 000, SetOption: 000, JoHOption: 000, 380Option: 000, SocketOption: 255,255,255,255,255, SocketOptionBonus: 255)
17:26:55 [WarehouseFromInventory][mainee][Samu] - (Number: 00, Index: 6670, Level: 00, Serial: 0080A818, Option1: 0, Option2: 0, Option3: 0, NewOption: 000, SetOption: 000, JoHOption: 000, 380Option: 000, SocketOption: 255,255,255,255,255, SocketOptionBonus: 255)
17:26:55 [WarehouseFromInventory][mainee][Samu] - (Number: 00, Index: 6670, Level: 00, Serial: 0080D4A0, Option1: 0, Option2: 0, Option3: 0, NewOption: 000, SetOption: 000, JoHOption: 000, 380Option: 000, SocketOption: 255,255,255,255,255, SocketOptionBonus: 255)
17:26:56 [WarehouseFromInventory][mainee][Samu] - (Number: 00, Index: 6670, Level: 00, Serial: 0080D430, Option1: 0, Option2: 0, Option3: 0, NewOption: 000, SetOption: 000, JoHOption: 000, 380Option: 000, SocketOption: 255,255,255,255,255, SocketOptionBonus: 255)
17:26:56 [WarehouseFromInventory][mainee][Samu] - (Number: 00, Index: 6670, Level: 00, Serial: 0080D1C3, Option1: 0, Option2: 0, Option3: 0, NewOption: 000, SetOption: 000, JoHOption: 000, 380Option: 000, SocketOption: 255,255,255,255,255, SocketOptionBonus: 255)
17:26:57 [WarehouseFromInventory][mainee][Samu] - (Number: 00, Index: 6670, Level: 00, Serial: 0080CE47, Option1: 0, Option2: 0, Option3: 0, NewOption: 000, SetOption: 000, JoHOption: 000, 380Option: 000, SocketOption: 255,255,255,255,255, SocketOptionBonus: 255)
17:26:57 [WarehouseFromInventory][mainee][Samu] - (Number: 00, Index: 6670, Level: 00, Serial: 0080CE48, Option1: 0, Option2: 0, Option3: 0, NewOption: 000, SetOption: 000, JoHOption: 000, 380Option: 000, SocketOption: 255,255,255,255,255, SocketOptionBonus: 255)
17:26:58 [WarehouseFromInventory][mainee][Samu] - (Number: 00, Index: 6670, Level: 00, Serial: 008092B9, Option1: 0, Option2: 0, Option3: 0, NewOption: 000, SetOption: 000, JoHOption: 000, 380Option: 000, SocketOption: 255,255,255,255,255, SocketOptionBonus: 255)
17:27:01 [WarehouseFromInventory][mainee][Samu] - (Number: 00, Index: 7184, Level: 00, Serial: 007E9F6D, Option1: 0, Option2: 0, Option3: 0, NewOption: 000, SetOption: 000, JoHOption: 000, 380Option: 000, SocketOption: 255,255,255,255,255, SocketOptionBonus: 255)
17:27:02 [WarehouseFromInventory][mainee][Samu] - (Number: 00, Index: 7182, Level: 00, Serial: 007E8604, Option1: 0, Option2: 0, Option3: 0, NewOption: 000, SetOption: 000, JoHOption: 000, 380Option: 000, SocketOption: 255,255,255,255,255, SocketOptionBonus: 255)
17:27:04 [WarehouseFromInventory][mainee][Samu] - (Number: 00, Index: 7182, Level: 00, Serial: 00806A32, Option1: 0, Option2: 0, Option3: 0, NewOption: 000, SetOption: 000, JoHOption: 000, 380Option: 000, SocketOption: 255,255,255,255,255, SocketOptionBonus: 255)
17:27:04 [WarehouseFromInventory][mainee][Samu] - (Number: 00, Index: 7181, Level: 00, Serial: 008062F2, Option1: 0, Option2: 0, Option3: 0, NewOption: 000, SetOption: 000, JoHOption: 000, 380Option: 000, SocketOption: 255,255,255,255,255, SocketOptionBonus: 255)
17:27:06 [Drop][mainee][Samu] - (Index: 7179, Level: 06, Serial: 007159BC, Option1: 0, Option2: 0, Option3: 0, NewOption: 000, SetOption: 000, JoHOption: 000, 380Option: 000, SocketOption: 255,255,255,255,255, SocketOptionBonus: 255)
17:27:07 [Drop][mainee][Samu] - (Index: 7179, Level: 06, Serial: 00706668, Option1: 0, Option2: 0, Option3: 0, NewOption: 000, SetOption: 000, JoHOption: 000, 380Option: 000, SocketOption: 255,255,255,255,255, SocketOptionBonus: 255)
17:27:08 [Drop][mainee][Samu] - (Index: 7179, Level: 05, Serial: 0072987A, Option1: 0, Option2: 0, Option3: 0, NewOption: 000, SetOption: 000, JoHOption: 000, 380Option: 000, SocketOption: 255,255,255,255,255, SocketOptionBonus: 255)
17:27:09 [Drop][mainee][Samu] - (Index: 7179, Level: 06, Serial: 00732FF1, Option1: 0, Option2: 0, Option3: 0, NewOption: 000, SetOption: 000, JoHOption: 000, 380Option: 000, SocketOption: 255,255,255,255,255, SocketOptionBonus: 255)
17:27:10 [Drop][mainee][Samu] - (Index: 7179, Level: 05, Serial: 0071C4BE, Option1: 0, Option2: 0, Option3: 0, NewOption: 000, SetOption: 000, JoHOption: 000, 380Option: 000, SocketOption: 255,255,255,255,255, SocketOptionBonus: 255)
17:27:25 [Drop][mainee][Samu] - (Index: 7179, Level: 05, Serial: 0072A2AF, Option1: 0, Option2: 0, Option3: 0, NewOption: 000, SetOption: 000, JoHOption: 000, 380Option: 000, SocketOption: 255,255,255,255,255, SocketOptionBonus: 255)
17:27:26 [Drop][mainee][Samu] - (Index: 7179, Level: 06, Serial: 007084A1, Option1: 0, Option2: 0, Option3: 0, NewOption: 000, SetOption: 000, JoHOption: 000, 380Option: 000, SocketOption: 255,255,255,255,255, SocketOptionBonus: 255)
17:27:29 [Drop][mainee][Samu] - (Index: 7179, Level: 06, Serial: 0071362A, Option1: 0, Option2: 0, Option3: 0, NewOption: 000, SetOption: 000, JoHOption: 000, 380Option: 000, SocketOption: 255,255,255,255,255, SocketOptionBonus: 255)
17:27:31 [Drop][mainee][Samu] - (Index: 7179, Level: 05, Serial: 0070BDF0, Option1: 0, Option2: 0, Option3: 0, NewOption: 000, SetOption: 000, JoHOption: 000, 380Option: 000, SocketOption: 255,255,255,255,255, SocketOptionBonus: 255)
17:27:32 [Drop][mainee][Samu] - (Index: 7179, Level: 05, Serial: 00714FCD, Option1: 0, Option2: 0, Option3: 0, NewOption: 000, SetOption: 000, JoHOption: 000, 380Option: 000, SocketOption: 255,255,255,255,255, SocketOptionBonus: 255)
17:27:33 [Drop][mainee][Samu] - (Index: 7179, Level: 05, Serial: 00702F5D, Option1: 0, Option2: 0, Option3: 0, NewOption: 000, SetOption: 000, JoHOption: 000, 380Option: 000, SocketOption: 255,255,255,255,255, SocketOptionBonus: 255)
17:27:34 [Drop][mainee][Samu] - (Index: 7179, Level: 06, Serial: 0072995B, Option1: 0, Option2: 0, Option3: 0, NewOption: 000, SetOption: 000, JoHOption: 000, 380Option: 000, SocketOption: 255,255,255,255,255, SocketOptionBonus: 255)
17:27:36 [Drop][mainee][Samu] - (Index: 7179, Level: 05, Serial: 00730341, Option1: 0, Option2: 0, Option3: 0, NewOption: 000, SetOption: 000, JoHOption: 000, 380Option: 000, SocketOption: 255,255,255,255,255, SocketOptionBonus: 255)
17:28:07 [Drop][mainee][Samu] - (Index: 7179, Level: 05, Serial: 0071BEB3, Option1: 0, Option2: 0, Option3: 0, NewOption: 000, SetOption: 000, JoHOption: 000, 380Option: 000, SocketOption: 255,255,255,255,255, SocketOptionBonus: 255)
17:28:10 [Drop][mainee][Samu] - (Index: 7179, Level: 05, Serial: 0070945D, Option1: 0, Option2: 0, Option3: 0, NewOption: 000, SetOption: 000, JoHOption: 000, 380Option: 000, SocketOption: 255,255,255,255,255, SocketOptionBonus: 255)
17:28:17 [Drop][mainee][Samu] - (Index: 7179, Level: 06, Serial: 0071D25F, Option1: 0, Option2: 0, Option3: 0, NewOption: 000, SetOption: 000, JoHOption: 000, 380Option: 000, SocketOption: 255,255,255,255,255, SocketOptionBonus: 255)
17:28:22 [Drop][mainee][Samu] - (Index: 7179, Level: 05, Serial: 00731405, Option1: 0, Option2: 0, Option3: 0, NewOption: 000, SetOption: 000, JoHOption: 000, 380Option: 000, SocketOption: 255,255,255,255,255, SocketOptionBonus: 255)
17:28:24 [Drop][mainee][Samu] - (Index: 7179, Level: 06, Serial: 00731D86, Option1: 0, Option2: 0, Option3: 0, NewOption: 000, SetOption: 000, JoHOption: 000, 380Option: 000, SocketOption: 255,255,255,255,255, SocketOptionBonus: 255)
17:28:27 [Drop][mainee][Samu] - (Index: 7179, Level: 06, Serial: 007008CF, Option1: 0, Option2: 0, Option3: 0, NewOption: 000, SetOption: 000, JoHOption: 000, 380Option: 000, SocketOption: 255,255,255,255,255, SocketOptionBonus: 255)
17:28:30 [Drop][mainee][Samu] - (Index: 7179, Level: 06, Serial: 00717AAE, Option1: 0, Option2: 0, Option3: 0, NewOption: 000, SetOption: 000, JoHOption: 000, 380Option: 000, SocketOption: 255,255,255,255,255, SocketOptionBonus: 255)
17:28:32 [Drop][mainee][Samu] - (Index: 7179, Level: 06, Serial: 00725ADE, Option1: 0, Option2: 0, Option3: 0, NewOption: 000, SetOption: 000, JoHOption: 000, 380Option: 000, SocketOption: 255,255,255,255,255, SocketOptionBonus: 255)
17:28:33 [Drop][mainee][Samu] - (Index: 7179, Level: 06, Serial: 007292D2, Option1: 0, Option2: 0, Option3: 0, NewOption: 000, SetOption: 000, JoHOption: 000, 380Option: 000, SocketOption: 255,255,255,255,255, SocketOptionBonus: 255)
20:59:16 [Drop][maia2][Wilouco] - (Index: 7390, Level: 00, Serial: 00813D67, Option1: 0, Option2: 0, Option3: 0, NewOption: 000, SetOption: 000, JoHOption: 000, 380Option: 000, SocketOption: 255,255,255,255,255, SocketOptionBonus: 255)
21:00:16 [InventoryFromWarehouse][maia2][Wilouco] - (Number: 00, Index: 4622, Level: 00, Serial: 00796A7C, Option1: 0, Option2: 1, Option3: 0, NewOption: 000, SetOption: 006, JoHOption: 000, 380Option: 000, SocketOption: 255,255,255,255,255, SocketOptionBonus: 255)
21:01:33 [InventoryFromWarehouse][maia2][Wilouco] - (Number: 01, Index: 3587, Level: 00, Serial: 007F6CA0, Option1: 0, Option2: 1, Option3: 0, NewOption: 000, SetOption: 005, JoHOption: 000, 380Option: 000, SocketOption: 255,255,255,255,255, SocketOptionBonus: 255)
21:29:51 [Drop][motyelf][xBellatrix] - (Index: 6694, Level: 00, Serial: 00788673, Option1: 0, Option2: 0, Option3: 0, NewOption: 000, SetOption: 000, JoHOption: 000, 380Option: 000, SocketOption: 255,255,255,255,255, SocketOptionBonus: 255)
21:30:12 [WarehouseFromInventory][motyelf][xBellatrix] - (Number: 00, Index: 4236, Level: 00, Serial: 0080344D, Option1: 0, Option2: 1, Option3: 1, NewOption: 002, SetOption: 000, JoHOption: 000, 380Option: 000, SocketOption: 255,255,007,255,255, SocketOptionBonus: 255)
21:36:52 [Sell][motyelf][xBellatrix] - (Index: 1042, Level: 00, Serial: 008020B5, Option1: 1, Option2: 0, Option3: 0, NewOption: 002, SetOption: 000, JoHOption: 000, 380Option: 000, SocketOption: 255,255,255,255,255, SocketOptionBonus: 255)
21:36:55 [Sell][motyelf][xBellatrix] - (Index: 4133, Level: 00, Serial: 007E1311, Option1: 0, Option2: 0, Option3: 2, NewOption: 019, SetOption: 000, JoHOption: 000, 380Option: 000, SocketOption: 255,255,255,255,255, SocketOptionBonus: 255)
21:37:03 [Sell][motyelf][xBellatrix] - (Index: 7186, Level: 06, Serial: 00803230, Option1: 0, Option2: 0, Option3: 0, NewOption: 000, SetOption: 000, JoHOption: 000, 380Option: 000, SocketOption: 255,255,255,255,255, SocketOptionBonus: 255)
21:45:41 [WarehouseFromInventory][motysum][Salazar] - (Number: 00, Index: 4750, Level: 00, Serial: 007CEB01, Option1: 0, Option2: 0, Option3: 0, NewOption: 002, SetOption: 000, JoHOption: 000, 380Option: 000, SocketOption: 255,007,008,255,255, SocketOptionBonus: 255)
21:52:24 [WarehouseFromInventory][motysum][Salazar] - (Number: 00, Index: 4277, Level: 00, Serial: 007C88C2, Option1: 0, Option2: 0, Option3: 0, NewOption: 002, SetOption: 000, JoHOption: 000, 380Option: 000, SocketOption: 255,006,007,255,255, SocketOptionBonus: 255)
21:52:25 [WarehouseFromInventory][motysum][Salazar] - (Number: 00, Index: 5262, Level: 00, Serial: 007C8B86, Option1: 0, Option2: 1, Option3: 2, NewOption: 001, SetOption: 000, JoHOption: 000, 380Option: 000, SocketOption: 255,007,009,255,255, SocketOptionBonus: 255)
21:52:26 [WarehouseFromInventory][motysum][Salazar] - (Number: 00, Index: 5282, Level: 00, Serial: 007C8E53, Option1: 0, Option2: 1, Option3: 1, NewOption: 002, SetOption: 000, JoHOption: 000, 380Option: 000, SocketOption: 255,255,255,255,255, SocketOptionBonus: 255)
21:52:27 [WarehouseFromInventory][motysum][Salazar] - (Number: 00, Index: 4767, Level: 00, Serial: 007E2B0F, Option1: 0, Option2: 0, Option3: 2, NewOption: 002, SetOption: 000, JoHOption: 000, 380Option: 000, SocketOption: 255,008,009,255,255, SocketOptionBonus: 255)
21:52:28 [WarehouseFromInventory][motysum][Salazar] - (Number: 00, Index: 5265, Level: 00, Serial: 007D24FC, Option1: 0, Option2: 0, Option3: 1, NewOption: 004, SetOption: 000, JoHOption: 000, 380Option: 000, SocketOption: 255,007,009,255,255, SocketOptionBonus: 255)
21:52:29 [WarehouseFromInventory][motysum][Salazar] - (Number: 00, Index: 5775, Level: 00, Serial: 007D1E9B, Option1: 0, Option2: 0, Option3: 0, NewOption: 001, SetOption: 000, JoHOption: 000, 380Option: 000, SocketOption: 255,007,008,255,255, SocketOptionBonus: 255)
21:52:30 [WarehouseFromInventory][motysum][Salazar] - (Number: 00, Index: 3727, Level: 00, Serial: 007D0351, Option1: 0, Option2: 1, Option3: 0, NewOption: 001, SetOption: 000, JoHOption: 000, 380Option: 000, SocketOption: 255,007,009,255,255, SocketOptionBonus: 255)
