//Index   Level   Count   Option1   Option2   Option3   NewOption   Comment



3624      3       255       0         0         0         0           // red wing
3623      3       255       0         0         0         0           //Violent Wind Helm"
7168      1       3       0         0         0         0           //Apple
7169      0       3       0         0         0         0           //Small Healing Potion
7170      0       3       0         0         0         0           //Healing Potion
7174      0       100     0         0         0         0           //Large Mana Potion
7174      0       50      0         0         0         0           //Large Mana Potion
7176      0       50      0         0         0         0           //Antidote
7176      0       100     0         0         0         0           //Antidote
7171      1       100     0         0         0         0           //Large Healing Potion

4136      3       255       0         0         0         0           // red wing
4135      3       255       0         0         0         0           //Violent Wind Armor"
7168      1       3       0         0         0         0           //Apple
7169      0       3       0         0         0         0           //Small Healing Potion
7170      0       3       0         0         0         0           //Healing Potion
7174      0       100     0         0         0         0           //Large Mana Potion
7174      0       50      0         0         0         0           //Large Mana Potion
7176      0       50      0         0         0         0           //Antidote
7176      0       100     0         0         0         0           //Antidote
7171      1       100     0         0         0         0           //Large Healing Potion

4648      3       255       0         0         0         0           // red wing
4647      3       255       0         0         0         0           //Violent Wind Pants
7168      1       3       0         0         0         0           //Apple
7169      0       3       0         0         0         0           //Small Healing Potion
7170      0       3       0         0         0         0           //Healing Potion
7174      0       100     0         0         0         0           //Large Mana Potion
7174      0       50      0         0         0         0           //Large Mana Potion
7176      0       50      0         0         0         0           //Antidote
7176      0       100     0         0         0         0           //Antidote
7171      1       100     0         0         0         0           //Large Healing Potion


5672      3       255       0         0         0         0           // red wing
5159      3       255       0         0         0         0           //Violent Wind Gloves
7168      0       3         0         0         0         0           //Apple



5160      3       255       0         0         0         0           // red wing
5671      3       255       0         0         0         0           //Violent Wind Boots
2576      3       255       0         0         0         0           //Stick red wing
2581      3       255       0         0         0         0           //Book of shamut  
2574      3       255       0         0         0         0           //Mystery Stick"      
2575      3       255       0         0         0         0           //Violent Wind Stick" 

6656      0       255       0         0         0         0           //Guardian Angel
6657      0       255       0         0         0         0           //Satan Imp
6658      0       255       0         0         0         0           //Urinia
7683      0       0         0         0         0         0           //Scroll of Fire Ball
7700      0       0         0         0         0         0           //Drain Life Parchment
  
7690      0       0         0         0         0         0           //Scroll of Power Wave
7681      0       0         0         0         0         0           //Scroll of Meteorite
7686      0       0         0         0         0         0           //Scroll of Ice


end
