//Index   Level   Count   Option1   Option2   Option3   NewOption   Comment
6727      0       0       9         1         3         0           //Sword/Mace/Spear
6728      0       0       9         1         3         0           //Staff
6729      0       0       9         1         3         0           //Bow/Crossbow
6730      0       0       9         1         3         0           //Scepter
6731      0       0       9         1         3         0           //Stick
end
