02:42:20 [SocketManager] Server started at port [55902]
02:42:22 [Connection] connect() failed with error: 10061
05:55:03 [SocketManager] WSARecv() failed with error: 10054
05:55:03 [SocketManager] Protocol header error (Index: 14011, Header: 5a)
05:55:03 [SocketManager] Protocol header error (Index: 14022, Header: 5a)
