//Index   Level   Count   Option1   Option2   Option3   NewOption   Comment
   
3585      3       255      0         0         0         0          //set dragon
3643      2       255      0         0         0         0          //Sacred fire
3590      2       255      0         0         0         0          //Scale Helm"
3592      2       255      0         0         0         0          //Brass Helm

4097      3       255      0         0         0         0          //set dragon
4155      2       255      0         0         0         0          //Sacred fire
4102      2       255      0         0         0         0          //Scale Armor
4104      2       255      0         0         0         0          //Brass Armor"

4614      2       255      0         0         0         0          //Scale Pants"
4616      2       255      0         0         0         0          //Brass Pants"
4609      3       255      0         0         0         0          //set dragon
4667      2       255      0         0         0         0          //Sacred fire

5126      2       255      0         0         0         0          //Scale Gloves"
5128      2       255      0         0         0         0          //Brass Gloves"
5121      3       255      0         0         0         0          //set dragon
0032      2       255      0         0         0         0          //Sacred Glove
0032      2       255      0         0         0         0          //Sacred Glove

5638      2       255      0         0         0         0          //Scale Boots"
5640      2       255      0         0         0         0          //Brass Boots" 
5633      3       255      0         0         0         0          //set dragon
5691      2       255      0         0         0         0          //Sacred fire
0009      2       255      0         0         0         0          //sword salamander

0004      2       255      0         0         0         0          //Sword of Assassin"        
0008      2       255      0         0         0         0          //Serpent Sword"        
0011      2       255      0         0         0         0          //Legendary Sword"     
0012      2       255      0         0         0         0          //Heliacal Sword"      


end
 