//Index   Level   Count     Option1   Option2   Option3   NewOption   Comment
7169      0       3         0         0         0         0           //Small Healing Potion
7170      0       3         0         0         0         0           //Healing Potion
7168      1       50        0         0         0         0           //Apple
7174      0       100       0         0         0         0           //Large Mana Potion
7176      0       100       0         0         0         0           //Antidote
7171      1       100       0         0         0         0           //Large Healing Potion
7174      0       50        0         0         0         0           //Large Mana Potion
7176      0       50        0         0         0         0           //Antidote
7171      1       50        0         0         0         0           //Large Healing Potion

6656      0       255       0         0         0         0           //Guardian Angel
6657      0       255       0         0         0         0           //Satan Imp
6658      0       255       0         0         0         0           //Urinia

6274      2       255       1         1         1         0           //Small Cape of Lord
6422      2       255       1         1         1         0           //Small Cape of limit GL
6275      2       255       1         1         1         0           //Small Wing of Curse
6276      2       255       1         1         1         0           //Small Wings of Elf
6277      2       255       1         1         1         0           //Small Wings of Heaven
6278      2       255       1         1         1         0           //Small Wings of Satan
6279      2       255       1         1         1         0           //Little Warrior's Cloak 

//itens lancer
3676      3       255       0         0         0         0           //Set Gru hill
4188      3       255       0         0         0         0           //Set Gru hill
4700      3       255       0         0         0         0           //Set Gru hill
5212      3       255       0         0         0         0           //Set Gru hill
5724      3       255       0         0         0         0           //Set Gru hill
1549      3       255       0         0         0         0           //Lapide lancer 
6418      0       255       0         0         0         0           //Harsh Strike Scroll"
//6415      0       255       0         0         0         0           //Spin Step Scroll"   
//6416      0       255       0         0         0         0           //Obsidian Scroll"    
//6419      0       255       0         0         0         0           //Shining Peak Scroll"
//6420      0       255       0         0         0         0           //Wrath Scroll"       
//6421      0       255       0         0         0         0           //Breche Scroll"        

//itens DL
3610      2       255       0         0         0         0           //Set Adamantine
4122      2       255       0         0         0         0           //Set Adamantine
4634      2       255       0         0         0         0           //Set Adamantine
5146      2       255       0         0         0         0           //Set Adamantine
5658      2       255       0         0         0         0           //Set Adamantine
1032      3       255       0         0         0         0           //Battle Scepter 
6165      0       255       0         0         0         0           //Fireburst scrool
//6166      0       255       0         0         0         0           //Somoning scroll
//6167      0       255       0         0         0         0           //Critial skill

end