//Index   Level   Count   Option1   Option2   Option3   NewOption   Comment
7169      0       3       0         0         0         0           //Small Healing Potion
7170      0       3       0         0         0         0           //Healing Potion
7174      0       50      0         0         0         0           //Large Mana Potion
7176      0       50      0         0         0         0           //Antidote
7171      0       50      0         0         0         0           //Large Healing Potion
7174      0       100     0         0         0         0           //Large Mana Potion
7176      0       100     0         0         0         0           //Antidote
7171      0       100     0         0         0         0           //Large Healing Potion

7169      0       3       0         0         0         0           //Small Healing Potion
7170      0       3       0         0         0         0           //Healing Potion
7174      0       50      0         0         0         0           //Large Mana Potion
7176      0       50      0         0         0         0           //Antidote
7171      0       50      0         0         0         0           //Large Healing Potion
7174      0       100     0         0         0         0           //Large Mana Potion
7176      0       100     0         0         0         0           //Antidote
7171      0       100     0         0         0         0           //Large Healing Potion

7168      0       1       0         0         0         0           //Apple
7168      0       25      0         0         0         0           //Apple


2055      0       255     0         0         0         0           //Bolt
2055      1       255     0         0         0         0           //Bolt
2055      2       255     0         0         0         0           //Bolt
2055      3       255     0         0         0         0           //Bolt
2063      0       255     0         0         0         0           //Arrow
2063      1       255     0         0         0         0           //Arrow
2063      2       255     0         0         0         0           //Arrow
2063      3       255     0         0         0         0           //Arrow
6663      0       1       0         0         0         0           //Contract (Summon)
6663      1       1       0         0         0         0           //Contract (Summon)
7178      0       1       0         0         0         0           //Town Portal Scroll
6685      0       1       0         0         0         0           //Armor of Guardsman
7177      0       1       0         0         0         0           //Ale
6656      0       255     0         0         0         0           //Guardian Angel
6656      0       255     0         0         0         0           //Guardian Angel
6657      0       255     0         0         0         0           //Satan Imp
6657      0       255     0         0         0         0           //Satan Imp
6672      1       1       0         0         0         0           //Scroll of Archangel 1
6672      2       1       0         0         0         0           //Scroll of Archangel 2
6673      1       1       0         0         0         0           //Blood Bone 1
6673      2       1       0         0         0         0           //Blood Bone 2
7185      1       1       0         0         0         0           //Devil's Eye 1
7185      2       1       0         0         0         0           //Devil's Eye 2
7186      1       1       0         0         0         0           //Devil's Key 1
7186      2       1       0         0         0         0           //Devil's Key 2
6656      0       255     0         0         0         0           //Guardian Angel
6656      0       255     0         0         0         0           //Guardian Angel
6657      0       255     0         0         0         0           //Satan Imp
6657      0       255     0         0         0         0           //Satan Imp
8431      0       0       0         0         0         0           //Muun Energy Converter
6214      0       0       0         0         0         0           //Sphere
6432      0       0       0         0         0         0           //Elemental Rune
6659      0       255     0         0         0         0           //Dinorant

end