3
//Index   DropRate
0         10000
1	      10000
end

4
//Index   Section   SectionRate   MoneyAmount   OptionValue   DW   DK   FE   MG   DL   SU   RF   GL   RW   SL
0         5         10000         1000          16            1    1    1    1    1    1    1    1    1    1  
1         6          5000         100           32            1    1    1    1    1    1    1	 1    1    1 
1         7          3500         100           32            1    1    1    1    1    1    1	 1    1    1 
1         8          1500         100           32            1    1    1    1    1    1    1	 1    1    1 
end

5
//Index   Level   Grade   Option0   Option1   Option2   Option3   Option4   Option5   Option6   Duration Comment 
end

6
//Index   Level   Grade   Option0   Option1   Option2   Option3   Option4   Option5   Option6   Duration Comment
7431      0       0       -1        -1        -1        -1        -1        -1         -1         0       //Bless of Light (Low Grade)"   
end

7
//Index   Level   Grade   Option0   Option1   Option2   Option3   Option4   Option5   Option6   Duration Comment
7432      0       0       -1        -1        -1        -1        -1        -1         -1         0       //Bless of Light (Mid Grade)"   
end

8
//Index   Level   Grade   Option0   Option1   Option2   Option3   Option4   Option5   Option6   Duration Comment
7392      0       0       -1        -1        -1        -1        -1        -1         -1         0       //Bless of Light (Greater)"   
end