0
//AlarmTime   StandTime   EventTime   CloseTime
5             1           10          4         
end

1
//Year   Month   Day   DoW   Hour   Minute   Second
*        *       *     *     0      45       0
*        *       *     *     2      45       0
*        *       *     *     4      45       0
*        *       *     *     6      45       0
*        *       *     *     8      45       0
*        *       *     *     10     45       0
*        *       *     *     12     45       0
*        *       *     *     14     45       0
*        *       *     *     16     45       0
*        *       *     *     18     45       0
*        *       *     *     20     45       0
*        *       *     *     22     45       0
end

2
//MonsterAIUnitNumber1   MonsterAIUnitNumber2   MonsterAIUnitNumber3   MonsterAIUnitNumber4
74                       75                     76                     77
end

3
//Index   Level   MaxLife   Damage   Defense
0         4.5     10.0      2.0      2.0
1         5.0     15.0      2.5      2.2
2         6.0     30.0      3.5      2.3
3         6.5     30.0      4.5      2.4
4         6.5     30.0      5.5      2.5
5         6.5     30.0      6.5      2.6
6         6.5     30.0      7.5      2.7
end

4
//Index   RewardExperience
0         250000
1         280000
2         300000
3         320000
4         340000
5         360000
6         380000
end