//Index   Name
0         "/move"
1         "/post2"
2         "/addstr"
2         "/addfor"
3         "/addagi"
4         "/addvit"
5         "/addene"
6         "/addcmd"
7         "/pkclear"
8         "/monsadasey"
9         "/changdasde"
10        "/bau"
11        "/resetasdas123"
12        "/gmmove"
13        "/gmpost"
14        "/trackgm"
15        "/tracegm"
16        "/dcgm"
17        "/fireworks"
18        "/fazgm"
18        "/doit"
19        "/skingm"
20        "/setmoney"
21        "/notice"
22        "/mresetasda"
23        "/war"
24        "/soccer"
25        "/re"
26        "/store"
27        "/offstore"
28        "/hide"
29        "/attack"
30        "/offattack"
31        "/mute"
32        "/pack"
33        "/part"
34        "/follow"
35        "/readd"
100       "/online"
101       "/info2"
102       "/logout"
103       "/clearinv"
104       "/open"
105       "/br"
110       "/dadsropgmcreate"
111       "/spawn"
112       "/setlevel"
113       "/setpoint"
114       "/setstr"
115       "/setagi"
116       "/setvit"
117       "/setene"
118       "/setcmd"
119       "/setmlevel"
120       "/setmpoint"
121       "/seteffect"
122       "/setruudgm"
123       "/setvip"
124       "/post"
203	      "/dep"
204	      "/sac"
205	      "/info"
206	      "/inv"
207	      "/abc"
208	      "/aaa"
210	      "/ce"
210	      "/ec"
211	      "/gh"
212	      "/lock"
213	      "/unlock"
214	      "/depbd"
215	      "/sacbd"
216	      "/infobd"
217	      "/zb"
218	      "/drop"
end