3
//Index   DropRate
0         10000
end

4
//Index   Section   SectionRate   MoneyAmount   OptionValue   DW   DK   FE   MG   DL   SU   RF   GL   RW   SL
0         5         2300          0             0             1    1    1    1    1    1    1    1    1    1
0         6         2300          0             0             1    1    1    1    1    1    1    1    1    1
0         7         2300          0             0             1    1    1    1    1    1    1    1    1    1
0         8         2300          0             0             1    1    1    1    1    1    1    1    1    1
0         9          800          0             0             1    1    1    1    1    1    1    1    1    1
end

5
//Index   Level   Grade   Option0   Option1   Option2   Option3   Option4   Option5   Option6   Duration   Comment
7477      0       0       *         *         *         *         *         *         *         0          //Fragment of Radiance slot (1)
end

6
//Index   Level   Grade   Option0   Option1   Option2   Option3   Option4   Option5   Option6   Duration   Comment
7478      0       0       *         *         *         *         *         *         *         0          //Fragment of Radiance slot (2)      
end

7
//Index   Level   Grade   Option0   Option1   Option2   Option3   Option4   Option5   Option6   Duration    Comment
7479      0       0       *         *         *         *         *         *         *         0           //Fragment of Radiance slot (3)
end

8
//Index   Level   Grade   Option0   Option1   Option2   Option3   Option4   Option5   Option6   Duration   Comment
7480      0       0       *         *         *         *         *         *         *         0          //Fragment of Radiance slot (4)      
end

9
//Index   Level   Grade   Option0   Option1   Option2   Option3   Option4   Option5   Option6   Duration   Comment
7488      0       0       *         *         *         *         *         *         *         0          //Blessing of Spirit      
end
