0
//Id       i.Idx      MinLvL           Max.LvL        Skill?         Luck?            MinAdd?         MaxAd?         MinEOP?           MaxExc?       MaxAnc?          380Opt?        MinSkt?         MaxSkt?     InWeapon?     InSets?         InWing?       SuccessRate_AL0   SuccessRate_AL1   SuccessRate_AL2   SuccessRate_AL3       SalePrice        ModelName
1          7493		  *		           *		      *	              0	         	  *	      	      *	          	*		*	 	*		*		*		*       	1	1		 1	     100		100		100			1000		10000		"Jewel of Luck"
2          7495		  *		           *		      *	              *	         	  *	      	      *	          	*		*	 	*		*		*		*       	1	1		 1	     100		100		100			1000		10000		"Jewel of Kundun"
end

1
//Id    Level     Skill   Luck    Life    Exc     Anc     380    Socket		Comment
1        0        0        1      0       0       0       0       0		//Luck
2        15       0        0      0       0       0       0       0		//Jewel Of Chaos Goblin
end

2
//Index   Level   Option1   Option2   Option3   NewOption   SetOption   380Option   SocketOption
end