56 8 331 7302 508 25 0 504 505 506 507 540 0 0 0 0 0 0 0 0 0 0 0 0 0 0 0
56 10 333 7304 508 50 0 512 513 514 515 516 517 0 0 0 0 0 0 0 0 0 0 0 0 0 0
56 9 332 7303 508 170 0 508 509 510 511 541 0 0 0 0 0 0 0 0 0 0 0 0 0 0 0
56 11 334 7305 508 175 0 518 519 520 521 522 523 525 0 0 0 0 0 0 0 0 0 0 0 0 0
56 12 335 7306 508 680 0 526 527 528 529 542 0 0 0 0 0 0 0 0 0 0 0 0 0 0 0
56 13 336 7307 508 700 0 530 531 532 533 535 536 537 0 0 0 0 0 0 0 0 0 0 0 0 0
60 1 276 6837 508 8 0 356 356 0 0 0 0 0 0 0 0 356 357 0 0 0 0 0 0 0 0
60 2 277 6749 508 6 0 358 358 0 0 0 0 0 0 0 0 358 359 0 0 0 0 0 0 0 0
60 3 278 6750 508 6 0 360 360 0 0 0 0 0 0 0 0 360 361 0 0 0 0 0 0 0 0
60 10 285 7399 508 5 0 374 374 0 0 0 0 0 0 0 0 374 375 0 0 0 0 0 0 0 0
60 6 281 7395 508 5 0 366 366 0 0 0 0 0 0 0 0 366 367 0 0 0 0 0 0 0 0
60 11 286 7400 508 5 0 376 376 0 0 0 0 0 0 0 0 376 377 0 0 0 0 0 0 0 0
60 9 284 7398 508 5 0 372 372 0 0 0 0 0 0 0 0 372 373 0 0 0 0 0 0 0 0
60 12 287 7403 508 5 0 378 378 0 0 0 0 0 0 0 0 378 379 0 0 0 0 0 0 0 0
60 7 282 7396 508 5 0 368 368 0 0 0 0 0 0 0 0 368 369 0 0 0 0 0 0 0 0
29 24 258 6699 508 4 0 314 314 0 0 0 0 0 0 0 0 314 315 0 0 0 0 0 0 0 0
29 25 259 6700 508 4 0 316 316 0 0 0 0 0 0 0 0 316 317 0 0 0 0 0 0 0 0
29 4 75 6718 508 4 0 38 0 0 0 0 0 0 0 0 0 62 63 0 0 0 0 0 0 0 0
29 5 73 6719 508 4 0 39 0 0 0 0 0 0 0 0 0 64 65 0 0 0 0 0 0 0 0
29 8 8 6760 508 2 0 73 0 0 0 0 0 0 0 0 0 123 124 0 0 0 0 0 0 0 0
29 9 7 6761 508 2 0 74 0 0 0 0 0 0 0 0 0 125 126 0 0 0 0 0 0 0 0
29 23 251 7250 508 2 0 304 304 0 0 0 0 0 0 0 0 304 305 0 0 0 0 0 0 0 0
29 16 89 7242 508 2 0 27 0 0 0 0 0 0 0 0 0 45 46 0 0 0 0 0 0 0 0
29 17 87 7243 508 2 0 28 0 0 0 0 0 0 0 0 0 47 48 0 0 0 0 0 0 0 0
29 18 77 7266 508 2 0 37 0 0 0 0 0 0 0 0 0 60 61 0 0 0 0 0 0 0 0
29 20 83 7245 508 2 0 30 0 0 0 0 0 0 0 0 0 51 52 0 0 0 0 0 0 0 0
29 21 85 7244 508 2 0 29 0 0 0 0 0 0 0 0 0 49 50 0 0 0 0 0 0 0 0
29 19 79 7265 508 2 0 36 0 0 0 0 0 0 0 0 0 58 59 0 0 0 0 0 0 0 0
29 15 93 7240 508 2 0 25 0 0 0 0 0 0 0 0 0 41 42 0 0 0 0 0 0 0 0
29 14 91 7241 508 2 0 26 0 0 0 0 0 0 0 0 0 43 44 0 0 0 0 0 0 0 0
28 5 325 6833 508 6 0 492 492 0 0 0 0 0 0 0 0 492 493 0 0 0 0 0 0 0 0
28 6 326 6834 508 8 0 494 494 0 0 0 0 0 0 0 0 494 495 0 0 0 0 0 0 0 0
28 1 71 6725 508 10 0 40 0 0 0 0 0 0 0 0 0 66 0 0 0 0 0 0 0 0 0
28 2 69 6726 508 10 0 41 0 0 0 0 0 0 0 0 0 67 0 0 0 0 0 0 0 0 0
28 8 348 6738 508 2 0 583 583 0 0 0 0 0 0 0 0 583 584 0 0 0 0 0 0 0 0
58 2 300 7484 508 140 0 404 0 0 0 0 0 0 0 0 0 404 0 0 0 0 0 0 0 0 0
58 1 257 7621 508 8 0 313 0 0 0 0 0 0 0 0 0 313 0 0 0 0 0 0 0 0 0
27 39 346 7485 508 120 0 580 0 0 0 0 0 0 0 0 0 580 0 0 0 0 0 0 0 0 0
27 31 254 7513 508 20 0 310 0 0 0 0 0 0 0 0 0 310 0 0 0 0 0 0 0 0 0
27 36 323 7513 508 160 0 472 473 474 475 476 477 478 479 480 481 0 0 0 0 0 0 0 0 0 0
27 37 337 7493 508 150 0 538 0 0 0 0 0 0 0 0 0 538 0 0 0 0 0 0 0 0 0
27 38 338 7495 508 150 0 539 0 0 0 0 0 0 0 0 0 539 0 0 0 0 0 0 0 0 0
27 22 199 7357 508 10 0 240 0 0 0 0 0 0 0 0 0 240 0 0 0 0 0 0 0 0 0
27 33 302 7357 508 80 0 406 407 408 409 410 411 412 413 414 415 0 0 0 0 0 0 0 0 0 0
27 23 200 7358 508 5 0 241 0 0 0 0 0 0 0 0 0 241 0 0 0 0 0 0 0 0 0
27 32 264 7358 508 40 0 326 327 328 329 330 331 332 333 334 335 0 0 0 0 0 0 0 0 0 0
27 20 194 7264 508 10 0 234 0 0 0 0 0 0 0 0 0 234 0 0 0 0 0 0 0 0 0
27 35 304 7264 508 80 0 426 427 428 429 430 431 432 433 434 435 0 0 0 0 0 0 0 0 0 0
27 21 198 7221 508 5 0 239 0 0 0 0 0 0 0 0 0 239 0 0 0 0 0 0 0 0 0
27 34 303 7221 508 40 0 416 417 418 419 420 421 422 423 424 425 0 0 0 0 0 0 0 0 0 0
27 24 212 7330 508 50 0 254 0 0 0 0 0 0 0 0 0 254 0 0 0 0 0 0 0 0 0
27 28 216 7488 508 40 0 258 0 0 0 0 0 0 0 0 0 258 0 0 0 0 0 0 0 0 0
27 25 213 7377 508 40 0 255 0 0 0 0 0 0 0 0 0 255 0 0 0 0 0 0 0 0 0
27 26 214 6716 508 40 0 256 0 0 0 0 0 0 0 0 0 256 0 0 0 0 0 0 0 0 0
27 29 217 7280 508 10 0 259 0 0 0 0 0 0 0 0 0 259 0 0 0 0 0 0 0 0 0
27 30 218 7281 508 15 0 260 0 0 0 0 0 0 0 0 0 260 0 0 0 0 0 0 0 0 0
30 1 31 6736 508 2 0 60 0 0 0 0 0 0 0 0 0 99 100 0 0 0 0 0 0 0 0
30 2 29 6779 508 2 0 61 0 0 0 0 0 0 0 0 0 101 102 0 0 0 0 0 0 0 0
30 6 206 6762 508 2 0 247 247 0 0 0 0 0 0 0 0 247 248 0 0 0 0 0 0 0 0
30 7 349 6721 508 2 0 588 588 0 0 0 0 0 0 0 0 588 589 0 0 0 0 0 0 0 0
30 8 352 6720 508 2 0 610 610 0 0 0 0 0 0 0 0 610 611 0 0 0 0 0 0 0 0
31 13 305 6733 508 7 0 436 436 0 0 0 0 0 0 0 0 436 437 0 0 0 0 0 0 0 0
31 1 37 6732 508 5 0 57 0 0 0 0 0 0 0 0 0 93 94 0 0 0 0 0 0 0 0
31 14 306 6821 508 5 0 438 438 0 0 0 0 0 0 0 0 438 439 0 0 0 0 0 0 0 0
31 15 307 6784 508 5 0 440 440 0 0 0 0 0 0 0 0 440 441 0 0 0 0 0 0 0 0
31 16 308 6785 508 5 0 442 442 0 0 0 0 0 0 0 0 442 443 0 0 0 0 0 0 0 0
31 17 309 6786 508 10 0 444 444 0 0 0 0 0 0 0 0 444 445 0 0 0 0 0 0 0 0
31 18 310 6790 508 10 0 446 446 0 0 0 0 0 0 0 0 446 447 0 0 0 0 0 0 0 0
31 20 312 6788 508 15 0 450 450 0 0 0 0 0 0 0 0 450 451 0 0 0 0 0 0 0 0
31 19 311 6763 508 10 0 448 448 0 0 0 0 0 0 0 0 448 449 0 0 0 0 0 0 0 0
31 21 313 6819 508 5 0 452 452 0 0 0 0 0 0 0 0 452 453 0 0 0 0 0 0 0 0
31 22 314 6820 508 5 0 454 454 0 0 0 0 0 0 0 0 454 455 0 0 0 0 0 0 0 0
31 2 35 6676 508 5 0 58 0 0 0 0 0 0 0 0 0 95 96 0 0 0 0 0 0 0 0
31 3 148 6763 508 5 0 71 0 0 0 0 0 0 0 0 0 119 120 0 0 0 0 0 0 0 0
31 4 33 6778 508 5 0 59 0 0 0 0 0 0 0 0 0 97 98 0 0 0 0 0 0 0 0
31 5 27 6765 508 5 0 62 0 0 0 0 0 0 0 0 0 103 104 0 0 0 0 0 0 0 0
31 6 25 6766 508 5 0 63 0 0 0 0 0 0 0 0 0 105 106 0 0 0 0 0 0 0 0
31 7 23 6767 508 5 0 64 0 0 0 0 0 0 0 0 0 107 108 0 0 0 0 0 0 0 0
31 8 21 6768 508 5 0 65 0 0 0 0 0 0 0 0 0 109 110 0 0 0 0 0 0 0 0
31 9 19 6769 508 5 0 66 0 0 0 0 0 0 0 0 0 111 112 0 0 0 0 0 0 0 0
31 10 17 6770 508 5 0 67 0 0 0 0 0 0 0 0 0 113 114 0 0 0 0 0 0 0 0
31 11 15 6771 508 5 0 68 0 0 0 0 0 0 0 0 0 115 116 0 0 0 0 0 0 0 0
31 12 191 7331 508 150 0 229 0 0 0 0 0 0 0 0 0 229 0 0 0 0 0 0 0 0 0
32 4 119 6702 508 10 0 12 0 0 0 0 0 0 0 0 0 20 21 0 0 0 0 0 0 0 0
32 5 117 6703 508 10 0 13 0 0 0 0 0 0 0 0 0 22 23 0 0 0 0 0 0 0 0
32 6 105 6717 508 10 0 19 0 0 0 0 0 0 0 0 0 29 30 0 0 0 0 0 0 0 0
32 7 57 6704 508 10 0 47 0 0 0 0 0 0 0 0 0 73 74 0 0 0 0 0 0 0 0
52 1 201 6811 508 100 0 242 0 0 0 0 0 0 0 0 0 242 0 0 0 0 0 0 0 0 0
52 2 202 6808 508 50 0 243 0 0 0 0 0 0 0 0 0 243 0 0 0 0 0 0 0 0 0
52 3 203 6809 508 50 0 244 0 0 0 0 0 0 0 0 0 244 0 0 0 0 0 0 0 0 0
52 4 204 6810 508 50 0 245 0 0 0 0 0 0 0 0 0 245 0 0 0 0 0 0 0 0 0
52 5 205 7165 508 80 0 246 0 0 0 0 0 0 0 0 0 246 0 0 0 0 0 0 0 0 0
61 14 321 6749 0 1200 0 468 468 0 0 0 0 0 0 0 0 468 469 0 0 0 0 0 0 0 0
61 15 322 6750 0 1200 0 470 470 0 0 0 0 0 0 0 0 470 471 0 0 0 0 0 0 0 0
61 5 292 7399 0 600 0 388 388 0 0 0 0 0 0 0 0 388 389 0 0 0 0 0 0 0 0
61 6 293 7395 0 600 0 390 390 0 0 0 0 0 0 0 0 390 391 0 0 0 0 0 0 0 0
61 7 294 7400 0 600 0 392 392 0 0 0 0 0 0 0 0 392 393 0 0 0 0 0 0 0 0
61 10 297 7398 0 600 0 398 398 0 0 0 0 0 0 0 0 398 399 0 0 0 0 0 0 0 0
61 11 298 7403 0 600 0 400 400 0 0 0 0 0 0 0 0 400 401 0 0 0 0 0 0 0 0
61 12 299 7396 0 600 0 402 402 0 0 0 0 0 0 0 0 402 403 0 0 0 0 0 0 0 0
34 18 252 6761 0 480 0 306 0 0 0 0 0 0 0 0 0 306 0 0 0 0 0 0 0 0 0
34 20 353 6760 0 480 0 612 612 0 0 0 0 0 0 0 0 612 613 0 0 0 0 0 0 0 0
34 19 253 7250 0 450 0 307 0 0 0 0 0 0 0 0 0 307 0 0 0 0 0 0 0 0 0
34 13 184 7242 0 600 0 218 218 0 0 0 0 0 0 0 0 218 219 0 0 0 0 0 0 0 0
34 14 185 7243 0 600 0 220 220 0 0 0 0 0 0 0 0 220 221 0 0 0 0 0 0 0 0
34 15 186 7266 0 600 0 222 222 0 0 0 0 0 0 0 0 222 223 0 0 0 0 0 0 0 0
34 1 138 7245 0 400 0 86 0 0 0 0 0 0 0 0 0 144 0 0 0 0 0 0 0 0 0
34 2 137 7244 0 400 0 85 0 0 0 0 0 0 0 0 0 143 0 0 0 0 0 0 0 0 0
34 16 187 7265 0 600 0 224 224 0 0 0 0 0 0 0 0 224 225 0 0 0 0 0 0 0 0
34 12 183 7240 0 600 0 216 216 0 0 0 0 0 0 0 0 216 217 0 0 0 0 0 0 0 0
34 11 182 7241 0 400 0 214 214 0 0 0 0 0 0 0 0 214 215 0 0 0 0 0 0 0 0
62 2 327 6833 0 1200 0 496 496 0 0 0 0 0 0 0 0 496 497 0 0 0 0 0 0 0 0
62 4 329 6725 0 800 0 499 0 0 0 0 0 0 0 0 0 499 0 0 0 0 0 0 0 0 0
62 3 328 6726 0 600 0 498 0 0 0 0 0 0 0 0 0 498 0 0 0 0 0 0 0 0 0
59 1 266 7621 0 20000 0 346 0 0 0 0 0 0 0 0 0 346 0 0 0 0 0 0 0 0 0
51 12 255 7513 0 7000 0 311 0 0 0 0 0 0 0 0 0 311 0 0 0 0 0 0 0 0 0
51 15 324 7513 0 56000 0 482 483 484 485 486 487 488 489 490 491 0 0 0 0 0 0 0 0 0 0
51 7 230 7358 0 800 0 272 0 0 0 0 0 0 0 0 0 272 0 0 0 0 0 0 0 0 0
51 14 265 7358 0 6400 0 336 337 338 339 340 341 342 343 344 345 0 0 0 0 0 0 0 0 0 0
51 5 197 7264 0 500 0 237 0 0 0 0 0 0 0 0 0 237 0 0 0 0 0 0 0 0 0
51 17 351 7264 0 4000 0 600 601 602 603 604 605 606 607 608 609 0 0 0 0 0 0 0 0 0 0
51 2 193 7221 0 400 0 233 0 0 0 0 0 0 0 0 0 233 0 0 0 0 0 0 0 0 0
51 16 350 7221 0 3200 0 590 590 590 590 590 590 596 597 598 599 590 591 592 593 594 595 0 0 0 0
51 13 256 7330 0 3000 0 312 0 0 0 0 0 0 0 0 0 312 0 0 0 0 0 0 0 0 0
51 9 232 7488 0 600 0 274 0 0 0 0 0 0 0 0 0 274 0 0 0 0 0 0 0 0 0
51 10 235 7280 0 200 0 279 0 0 0 0 0 0 0 0 0 279 0 0 0 0 0 0 0 0 0
51 11 236 7281 0 300 0 280 0 0 0 0 0 0 0 0 0 280 0 0 0 0 0 0 0 0 0
47 1 166 6736 0 600 0 190 190 0 0 0 0 0 0 0 0 190 191 0 0 0 0 0 0 0 0
47 2 167 6720 0 400 0 192 192 0 0 0 0 0 0 0 0 192 193 0 0 0 0 0 0 0 0
48 1 168 6732 0 800 0 195 195 0 0 0 0 0 0 0 0 195 196 0 0 0 0 0 0 0 0
48 2 190 7331 0 3000 0 228 0 0 0 0 0 0 0 0 0 228 0 0 0 0 0 0 0 0 0
49 1 169 6702 0 300 0 197 197 0 0 0 0 0 0 0 0 197 198 0 0 0 0 0 0 0 0
49 2 170 6703 0 300 0 199 199 0 0 0 0 0 0 0 0 199 200 0 0 0 0 0 0 0 0
49 3 171 6717 0 300 0 201 201 0 0 0 0 0 0 0 0 201 202 0 0 0 0 0 0 0 0
49 4 172 6704 0 300 0 203 203 0 0 0 0 0 0 0 0 203 204 0 0 0 0 0 0 0 0
55 1 224 6811 0 3500 0 266 0 0 0 0 0 0 0 0 0 266 0 0 0 0 0 0 0 0 0
55 2 225 6808 0 1000 0 267 0 0 0 0 0 0 0 0 0 267 0 0 0 0 0 0 0 0 0
55 3 226 6809 0 1000 0 268 0 0 0 0 0 0 0 0 0 268 0 0 0 0 0 0 0 0 0
55 4 227 6810 0 1000 0 269 0 0 0 0 0 0 0 0 0 269 0 0 0 0 0 0 0 0 0
55 5 228 7165 0 3000 0 270 0 0 0 0 0 0 0 0 0 270 0 0 0 0 0 0 0 0 0
57 1 244 6274 0 0 0 289 0 0 0 0 0 0 0 0 0 289 0 0 0 0 0 0 0 0 0
57 2 245 6422 0 0 0 290 0 0 0 0 0 0 0 0 0 290 0 0 0 0 0 0 0 0 0
57 3 246 6275 0 0 0 291 0 0 0 0 0 0 0 0 0 291 0 0 0 0 0 0 0 0 0
57 4 247 6276 0 0 0 292 0 0 0 0 0 0 0 0 0 292 0 0 0 0 0 0 0 0 0
57 5 248 6277 0 0 0 293 0 0 0 0 0 0 0 0 0 293 0 0 0 0 0 0 0 0 0
57 6 249 6278 0 0 0 294 0 0 0 0 0 0 0 0 0 294 0 0 0 0 0 0 0 0 0
57 7 250 6279 0 0 0 295 0 0 0 0 0 0 0 0 0 295 0 0 0 0 0 0 0 0 0
end
