0
//Index   Type   SubIndex   Name                                 Rate   Value1   Value2   Value3   Value4   Value5   Value6   Value7   Value8   Value9   Value10

//Fire
0         1      0          "Add Damage By Level"                30     11       12       13       14       15       16       17       18       19       20
1	      1	     1          "Add Speed"                          20     7        8        9        10       11       12       13       14       15       16
2         1      2          "Add Min Damage"                     30     30       32       35       40       50       55       61       67       73       83
3         1      3          "Add Max Damage"                     40     20       22       25       30       35       40       45       51       57       63
4         1      4          "Add Damage"                         20     20       22       25       30       35       40       45       51       57       63
5         1      5          "Sub BP Consumption Rate"            30     40       41       42       43       44       45       46       47       48       49

//Water
10        2      0          "Mul Defense Success Rate"           10     10       11       12       13       14       15       16       17       18       19
11        2      1          "Add Defense"                        30     30       33       36       39       41       44       47       51       55       60
12        2      2          "Add Shield Damage Reduction"        50     100      150      250      300      350      400      450      500      550      600
13        2      3          "Add Damage Reduction"               20     4        5        6        7        8        9        10       11       12       13
14        2      4          "Add Damage Reflect"                 40     5        6        7        8        9        10       11       12       13       14

//Ice
16        3      0          "Add Hunt HP"                        30     250      280      310      340      372      404      436      471      506      541
17        3      1          "Add Hunt MP"                        20     400      450      500      550      601      652      703      755      807      859
18        3      2          "Add Skill Damage"                   10     37       40       45       50       57       64       71       80       89       100
19        3      3          "Add Attack Success Rate"            50     25       27       30       35       42       49       56       65       74       83
20        3      4          "Add Item Durability Rate"           30     30       32       34       36       40       44       49       54       60       66

//Wind
21        4      0          "Add HP Recovery"                    40     8        10       13       16       21       26       31       38       45       52
22        4      1          "Add Max HP"                         30     100      115      130      145      165      185      205      235      265      295
23        4      2          "Add Max MP"                         40     150      165      180      195      215      235      255      285      315      345
24        4      3          "Add MP Recovery"                    50     7        14       21       28       37       46       55       66       77       88
25        4      4          "Add Max BP"                         40     70       82       95       110      126      143      162      182      203      226
26        4      5          "Add BP Recovery"                    50     5        7        9        11       13       15       17       19       21       23

//Lightning
29        5      0          "Add Excellent Damage"               20     15       20       25       30       36       43       51       60       70       81
30        5      1          "Add Excellent Damage Rate"          10     10       11       12       13       14       15       16       17       18       19
31        5      2          "Add Critical Damage"                30     30       32       35       40       47       56       66       77       89       102
32        5      3          "Add Critical Damage Rate"           10     8        9        10       11       12       13       14       15       16       17

//Earth
34        6      0          "Add Strength"                       10     6        8        9        10       11       13       15       18       20       24
35        6      1          "Add Dexterity"                      10     1        2        3        4        5        7        9        12       15       18
36        6      2          "Add Vitality"                       10     30       32       34       36       38       41       44       48       52       57
37        6      3          "Add Energy"                         10     10       12       13       15       17       20       23       27       31       36
end

1
//Index   MinItemSection   MaxItemSection   Name                                 Rate   Value   ReqOptionType1   ReqOptionType2   ReqOptionType3   ReqOptionType4   ReqOptionType5
0         0                4                "Add Damage"                         30     11      1                5                3                0                0
1         0                4                "Add Skill Damage"                   30     11      5                3                1                0                0
2         5                5                "Add Damage"                         30     5       1                5                3                0                0
3         5                5                "Add Skill Damage"                   30     11      5                3                1                0                0
4         6                12               "Add Defense"                        30     24      2                6                4                0                0
5         6                12               "Add Max HP"                         30     29      6                4                2                0                0
6         0                4                "Add Damage"                         10     22      1                5                3                0                0
7         0                4                "Add Skill Damage"                   10     22      5                3                1                0                0
8         5                5                "Add Damage"                         10     10      1                5                3                0                0
9         5                5                "Add Skill Damage"                   10     22      5                3                1                0                0
10        6                12               "Add Defense"                        10     27      2                6                4                0                0
11        6                12               "Add Max HP"                         10     31      6                4                2                0                0
12        0                4                "Add Damage"                         10     33      1                5                3                0                0
13        0                4                "Add Skill Damage"                   10     33      5                3                1                0                0
14        5                5                "Add Damage"                         10     15      1                5                3                0                0
15        5                5                "Add Skill Damage"                   10     33      5                3                1                0                0
16        6                12               "Add Defense"                        10     30      2                6                4                0                0
17        6                12               "Add Max HP"                         10     33      6                4                2                0                0
end

2
//Index   Name                                 Value   ReqOptionTypeCount1   ReqOptionTypeCount2   ReqOptionTypeCount3   ReqOptionTypeCount4   ReqOptionTypeCount5   ReqOptionTypeCount6
0         "Add Double Damage Rate"             3       1                     1                     1                     1                     1                     1
1         "Add Ignore Defense Rate"            1       1                     3                     1                     3                     1                     2
end