3
//Index   DropRate
0         10000
1         10000
end

4
//Index   Section   SectionRate   MoneyAmount   OptionValue   DW   DK   FE   MG   DL   SU   RF   GL   RW   SL
0         5         10000         1500          16            1    1    1    1    1    1	1    1    1    1
1         6         10000         100           32            1    1    1    1    1    1    1    1    1    1 
end

5
//Index   Level   Grade   Option0   Option1   Option2   Option3   Option4   Option5   Option6   Duration Comment 
end
  
6
//Index   Level   Grade   Option0   Option1   Option2   Option3   Option4   Option5   Option6   Duration  Comment
//Titan Armor - ok 380 dk
3629          0       0       *       *         13         *         *        *         18        0       	
//Brave Armor - ok 380 dk
3630          0       0       *       *         13         *         *        *         18        0      
//Phantom  Armor - ok 380 mg
4143          0       0       *       *         13         *         *        *         18        0      
//Destroy  Armor - ok 380 mg
4144          0       0       *       *         13         *         *        *         18        0      
//Seraphim Armor - ok 380 elf
3633          0       0       *       *         13         *         *        *         18        0      
//Divine Armor - ok 380 elf
3634          0       0       *       *         13         *         *        *         18        0      
//Royal - ok 380 dl
3635          0       0       *       *         13         *         *        *         18        0      
//Hades ok 380 dw
3636          0       0       *       *         13         *         *        *         18        0      
//Fidelity ok 380 SL
3762          0       0       *       *         13         *         *        *         18        0      
//Eternal Wings 380 Sum
3628          0       0       *       *         13         *         *        *         18        0      
//Tigris ok 380 RF
3730          0       0       *       *         13         *         *        *         18        0      
//Grace ok 380 Lancer
3732          0       0       *       *         13         *         *        *         18        0      
//Rune Devine ok 380 RM
3704          0       0       *       *         13         *         *        *         18        0      
end
