3
//Index   DropRate
0         10000
1         10000
2         10000
3         10000
4         10000
end

4
//Index   Section   SectionRate   MoneyAmount   OptionValue   DW   DK   FE   MG   DL   SU   RF   GL   RW   SL
0         5         10000         2000          16            1    1    1    1    1    1    1    1    1    1 
1         6         10000         100           32            1    1    1    1    1    1    1    1    1    1
2         7         10000         100           32            1    1    1    1    1    1    1    1    1    1
3         8         10000         100           32            1    1    1    1    1    1    1    1    1    1
4         9         10000         100           32            1    1    1    1    1    1	1    1    1    1
end


5
//Index   Level   Grade   Option0   Option1   Option2   Option3   Option4   Option5   Option6   Duration Comment 
end

6
//Index   Level   Grade   Option0   Option1   Option2   Option3   Option4   Option5   Option6   Duration   Comment
7122      0       0       -1        -1       -1        -1        -1        -1        -1         0  	       //Garuda's Flame
/7124      0       0       -1        -1       -1        -1        -1        -1        -1         0  	       //golden sentence                 
end

7
//Index   Level   Grade   Option0   Option1   Option2   Option3   Option4   Option5   Option6   Duration   Comment                 
7124      0       0       -1        -1        -1        -1        -1        -1        -1        0          //golden sentence
end

8
//Index   Level   Grade   Option0   Option1   Option2   Option3   Option4   Option5   Option6   Duration   Comment
7124      0       0       -1        -1        -1        -1        -1        -1        -1        0  	       //golden sentence
end

9
//Index   Level   Grade   Option0   Option1   Option2   Option3   Option4   Option5   Option6   Duration   Comment
6352        0       0       *         *         *         *         *        *         5         0      //Kundun's Madness Blade"      
6353        0       0       *         *         *         *         *        *         5         0      //Kundun's Magic Spell Scroll" 
6354        0       0       *         *         *         *         *        *         5         0      //Empire Guardians' Stronghold"
6355        0       0       *         *         *         *         *        *         5         0      //Ancient Icarus Scroll"       
6356        0       0       *         *         *         *         *        *         5         0      //Arca's Prophecy"             
6357        0       0       *         *         *         *         *        *         5         0      //Antonia's Sword"             
6358        0       0       *         *         *         *         *        *         5         0      //Kundun's Seal Scroll"        
6450        0       0       *         *         *         *         *        *         5         0      //Runedil's Goldentune Harp" 
6451        0       0       *         *         *         *         *        *         5         0      //Lemuria's Orb"             
6452        0       0       *         *         *         *         *        *         5         0      //Norrwen's Bloodstring Lyra"
end