3
//Index   DropRate
0         10000
end

4
//Index   Section   SectionRate   MoneyAmount   OptionValue   DW   DK   FE   MG   DL   SU   RF   GL
0         5         10000         0             4             1    1    1    1    1    1    1    1
end

5
//Index   Level   Grade   Option0   Option1   Option2   Option3   Option4   Option5   Option6   Duration Comment
5809      0       1       *         12        602       10        21        10        10        0      //slayer Nightwing
end





////exemplo ruud para como reomcpensa
//4
////Index   Section   SectionRate  IdentificadorRemetente   OptionValue   DW   DK   FE   MG   DL   SU   RF   GL   RW   SL 
//0         5         10000         500                      32              1    1    1    1    1    1    1    1  1    1 
//end
//1 = Chaos Castle.
//2 = Blood Castle.
//3 = Illusion Temple.
//4 = Double Goer.
//13 = Devil Square.
//14 = Arca Battle.
//100 = Game Master reward.
//exemplo item gm master para gremory
//4
////Index   Section   SectionRate   MoneyAmount   OptionValue   DW   DK   FE   MG   DL   SU   RF   GL   RW   SL
//0         5         10000         100	          32           1   1    1    1    1    1    1    1    1    1    1  
//end
