3
//Index   DropRate
0         10000
1         10000
end

4
//Index   Section   SectionRate   MoneyAmount   OptionValue   DW   DK   FE   MG   DL   SU   RF   GL   RM   SL
0         5         10000         100           32            1    1    1    1    1    1    1    1    1    1
1         6         10000         100           32            1    1    1    1    1    1    1    1    1    1
end


5
//Index   Level   Grade   Option0   Option1   Option2   Option3   Option4   Option5   Option6   Duration   Comment
//Bloodangel Summoner 
2603        0       1       *        12         13        20        *         *         *       0  //Bloodangel Stick"
end

6
6425       0       0       26        -1        -1        -1        -1        -1        -1        0     //[Bound] Wings of Magic  
end