00:18:01 [HackSkillSpeedCheck][tecnotrix][SpirtFrost] Skill Speed count error (Index: 730, Speed: 74, Count: [2.60][0.00])
06:13:10 [HackSkillSpeedCheck][ronalapobk][20ComBar] Skill Speed count error (Index: 723, Speed: 206, Count: [7.76][0.00])
09:34:19 [HackSkillSpeedCheck][maia3][Atirissa] Skill Speed count error (Index: 730, Speed: 91, Count: [2.59][0.00])
10:13:43 [HackSkillSpeedCheck][darkloko][EnVyUs] Skill Speed count error (Index: 737, Speed: 140, Count: [3.76][0.00])
10:14:03 [HackSkillSpeedCheck][darkloko][EnVyUs] Skill Speed count error (Index: 737, Speed: 140, Count: [3.88][0.00])
10:15:16 [HackSkillSpeedCheck][darkloko][EnVyUs] Skill Speed count error (Index: 737, Speed: 140, Count: [4.51][0.00])
10:16:25 [HackSkillSpeedCheck][darkloko][EnVyUs] Skill Speed count error (Index: 737, Speed: 140, Count: [3.90][0.00])
10:20:42 [HackSkillSpeedCheck][darkloko][EnVyUs] Skill Speed count error (Index: 737, Speed: 140, Count: [3.94][0.00])
10:33:57 [HackSkillSpeedCheck][darkloko][EnVyUs] Skill Speed count error (Index: 737, Speed: 140, Count: [3.71][0.00])
10:44:56 [HackSkillSpeedCheck][darkloko][EnVyUs] Skill Speed count error (Index: 737, Speed: 140, Count: [3.82][0.00])
10:51:42 [HackSkillSpeedCheck][darkloko][EnVyUs] Skill Speed count error (Index: 737, Speed: 140, Count: [4.16][0.00])
11:08:20 [HackSkillSpeedCheck][darkloko][EnVyUs] Skill Speed count error (Index: 737, Speed: 140, Count: [4.00][0.00])
11:10:40 [HackSkillSpeedCheck][ana2828][Samsara] Skill Speed count error (Index: 214, Speed: 94, Count: [2.11][0.00])
11:14:50 [HackSkillSpeedCheck][ana2828][Samsara] Skill Speed count error (Index: 730, Speed: 94, Count: [2.53][0.00])
11:14:53 [HackSkillSpeedCheck][ana2828][Samsara] Skill Speed count error (Index: 730, Speed: 94, Count: [2.53][0.00])
11:14:58 [HackSkillSpeedCheck][ana2828][Samsara] Skill Speed count error (Index: 730, Speed: 94, Count: [2.53][0.00])
11:15:02 [HackSkillSpeedCheck][ana2828][Samsara] Skill Speed count error (Index: 730, Speed: 94, Count: [2.53][0.00])
11:15:08 [HackSkillSpeedCheck][ana2828][Samsara] Skill Speed count error (Index: 730, Speed: 94, Count: [2.56][0.00])
11:15:10 [HackSkillSpeedCheck][ana2828][Samsara] Skill Speed count error (Index: 730, Speed: 94, Count: [2.53][0.00])
11:15:15 [HackSkillSpeedCheck][ana2828][Samsara] Skill Speed count error (Index: 730, Speed: 94, Count: [2.60][0.00])
11:15:18 [HackSkillSpeedCheck][ana2828][Samsara] Skill Speed count error (Index: 730, Speed: 94, Count: [2.53][0.00])
11:15:22 [HackSkillSpeedCheck][ana2828][Samsara] Skill Speed count error (Index: 730, Speed: 94, Count: [2.53][0.00])
11:15:27 [HackSkillSpeedCheck][ana2828][Samsara] Skill Speed count error (Index: 730, Speed: 94, Count: [2.53][0.00])
11:15:28 [HackSkillSpeedCheck][ana2828][Samsara] Skill Speed count error (Index: 730, Speed: 94, Count: [2.53][0.00])
11:15:29 [HackSkillSpeedCheck][ana2828][Samsara] Skill Speed count error (Index: 730, Speed: 94, Count: [2.53][0.00])
11:15:32 [HackSkillSpeedCheck][ana2828][Samsara] Skill Speed count error (Index: 730, Speed: 94, Count: [2.59][0.00])
11:15:33 [HackSkillSpeedCheck][ana2828][Samsara] Skill Speed count error (Index: 730, Speed: 94, Count: [2.53][0.00])
11:15:35 [HackSkillSpeedCheck][ana2828][Samsara] Skill Speed count error (Index: 730, Speed: 94, Count: [2.53][0.00])
11:15:38 [HackSkillSpeedCheck][ana2828][Samsara] Skill Speed count error (Index: 730, Speed: 94, Count: [2.56][0.00])
11:15:40 [HackSkillSpeedCheck][ana2828][Samsara] Skill Speed count error (Index: 730, Speed: 94, Count: [2.56][0.00])
11:15:42 [HackSkillSpeedCheck][ana2828][Samsara] Skill Speed count error (Index: 730, Speed: 94, Count: [2.53][0.00])
11:15:45 [HackSkillSpeedCheck][ana2828][Samsara] Skill Speed count error (Index: 730, Speed: 94, Count: [2.53][0.00])
11:15:47 [HackSkillSpeedCheck][ana2828][Samsara] Skill Speed count error (Index: 730, Speed: 94, Count: [2.53][0.00])
11:16:12 [HackSkillSpeedCheck][ana2828][Samsara] Skill Speed count error (Index: 729, Speed: 94, Count: [2.56][0.00])
11:16:17 [HackSkillSpeedCheck][ana2828][Samsara] Skill Speed count error (Index: 729, Speed: 94, Count: [2.53][0.00])
11:16:23 [HackSkillSpeedCheck][ana2828][Samsara] Skill Speed count error (Index: 729, Speed: 94, Count: [2.53][0.00])
11:16:27 [HackSkillSpeedCheck][ana2828][Samsara] Skill Speed count error (Index: 729, Speed: 94, Count: [2.56][0.00])
11:16:31 [HackSkillSpeedCheck][ana2828][Samsara] Skill Speed count error (Index: 729, Speed: 94, Count: [2.53][0.00])
11:16:33 [HackSkillSpeedCheck][ana2828][Samsara] Skill Speed count error (Index: 729, Speed: 94, Count: [2.53][0.00])
11:16:37 [HackSkillSpeedCheck][ana2828][Samsara] Skill Speed count error (Index: 729, Speed: 94, Count: [2.56][0.00])
11:16:46 [HackSkillSpeedCheck][ana2828][Samsara] Skill Speed count error (Index: 729, Speed: 94, Count: [2.53][0.00])
11:16:49 [HackSkillSpeedCheck][ana2828][Samsara] Skill Speed count error (Index: 729, Speed: 94, Count: [2.56][0.00])
11:16:51 [HackSkillSpeedCheck][ana2828][Samsara] Skill Speed count error (Index: 729, Speed: 94, Count: [2.53][0.00])
11:16:55 [HackSkillSpeedCheck][ana2828][Samsara] Skill Speed count error (Index: 729, Speed: 94, Count: [2.53][0.00])
11:16:57 [HackSkillSpeedCheck][ana2828][Samsara] Skill Speed count error (Index: 729, Speed: 94, Count: [2.53][0.00])
11:17:03 [HackSkillSpeedCheck][ana2828][Samsara] Skill Speed count error (Index: 729, Speed: 94, Count: [2.53][0.00])
11:17:14 [HackSkillSpeedCheck][ana2828][Samsara] Skill Speed count error (Index: 729, Speed: 94, Count: [2.53][0.00])
11:17:17 [HackSkillSpeedCheck][ana2828][Samsara] Skill Speed count error (Index: 729, Speed: 94, Count: [2.53][0.00])
11:17:20 [HackSkillSpeedCheck][ana2828][Samsara] Skill Speed count error (Index: 729, Speed: 94, Count: [2.53][0.00])
11:17:26 [HackSkillSpeedCheck][ana2828][Samsara] Skill Speed count error (Index: 729, Speed: 94, Count: [2.60][0.00])
11:17:29 [HackSkillSpeedCheck][ana2828][Samsara] Skill Speed count error (Index: 729, Speed: 94, Count: [2.53][0.00])
11:17:31 [HackSkillSpeedCheck][ana2828][Samsara] Skill Speed count error (Index: 729, Speed: 94, Count: [2.56][0.00])
11:17:36 [HackSkillSpeedCheck][ana2828][Samsara] Skill Speed count error (Index: 729, Speed: 94, Count: [2.56][0.00])
11:17:42 [HackSkillSpeedCheck][ana2828][Samsara] Skill Speed count error (Index: 729, Speed: 94, Count: [2.56][0.00])
11:17:46 [HackSkillSpeedCheck][ana2828][Samsara] Skill Speed count error (Index: 729, Speed: 94, Count: [2.53][0.00])
11:17:53 [HackSkillSpeedCheck][ana2828][Samsara] Skill Speed count error (Index: 729, Speed: 94, Count: [2.53][0.00])
11:17:54 [HackSkillSpeedCheck][ana2828][Samsara] Skill Speed count error (Index: 729, Speed: 94, Count: [2.53][0.00])
11:17:56 [HackSkillSpeedCheck][ana2828][Samsara] Skill Speed count error (Index: 729, Speed: 94, Count: [2.53][0.00])
11:17:58 [HackSkillSpeedCheck][ana2828][Samsara] Skill Speed count error (Index: 729, Speed: 94, Count: [2.53][0.00])
11:18:01 [HackSkillSpeedCheck][ana2828][Samsara] Skill Speed count error (Index: 729, Speed: 94, Count: [2.53][0.00])
11:18:10 [HackSkillSpeedCheck][ana2828][Samsara] Skill Speed count error (Index: 729, Speed: 94, Count: [2.53][0.00])
11:18:17 [HackSkillSpeedCheck][ana2828][Samsara] Skill Speed count error (Index: 729, Speed: 94, Count: [2.63][0.00])
11:18:21 [HackSkillSpeedCheck][ana2828][Samsara] Skill Speed count error (Index: 729, Speed: 94, Count: [2.53][0.00])
11:18:24 [HackSkillSpeedCheck][ana2828][Samsara] Skill Speed count error (Index: 729, Speed: 94, Count: [2.53][0.00])
11:18:26 [HackSkillSpeedCheck][ana2828][Samsara] Skill Speed count error (Index: 729, Speed: 94, Count: [2.53][0.00])
11:18:29 [HackSkillSpeedCheck][ana2828][Samsara] Skill Speed count error (Index: 729, Speed: 94, Count: [2.53][0.00])
11:18:32 [HackSkillSpeedCheck][ana2828][Samsara] Skill Speed count error (Index: 729, Speed: 94, Count: [2.53][0.00])
11:18:33 [HackSkillSpeedCheck][ana2828][Samsara] Skill Speed count error (Index: 729, Speed: 94, Count: [2.56][0.00])
11:18:50 [HackSkillSpeedCheck][ana2828][Samsara] Skill Speed count error (Index: 729, Speed: 94, Count: [2.56][0.00])
11:18:53 [HackSkillSpeedCheck][ana2828][Samsara] Skill Speed count error (Index: 729, Speed: 94, Count: [2.53][0.00])
11:18:57 [HackSkillSpeedCheck][ana2828][Samsara] Skill Speed count error (Index: 729, Speed: 94, Count: [2.56][0.00])
11:19:04 [HackSkillSpeedCheck][ana2828][Samsara] Skill Speed count error (Index: 729, Speed: 94, Count: [2.60][0.00])
11:19:07 [HackSkillSpeedCheck][ana2828][Samsara] Skill Speed count error (Index: 729, Speed: 94, Count: [2.56][0.00])
11:19:12 [HackSkillSpeedCheck][ana2828][Samsara] Skill Speed count error (Index: 729, Speed: 94, Count: [2.53][0.00])
11:19:13 [HackSkillSpeedCheck][ana2828][Samsara] Skill Speed count error (Index: 729, Speed: 94, Count: [2.53][0.00])
11:19:16 [HackSkillSpeedCheck][ana2828][Samsara] Skill Speed count error (Index: 729, Speed: 94, Count: [2.60][0.00])
11:19:19 [HackSkillSpeedCheck][ana2828][Samsara] Skill Speed count error (Index: 729, Speed: 94, Count: [2.53][0.00])
11:19:25 [HackSkillSpeedCheck][ana2828][Samsara] Skill Speed count error (Index: 729, Speed: 94, Count: [2.56][0.00])
11:19:57 [HackSkillSpeedCheck][ana2828][Samsara] Skill Speed count error (Index: 729, Speed: 94, Count: [2.53][0.00])
11:20:03 [HackSkillSpeedCheck][ana2828][Samsara] Skill Speed count error (Index: 729, Speed: 94, Count: [2.56][0.00])
11:20:07 [HackSkillSpeedCheck][ana2828][Samsara] Skill Speed count error (Index: 729, Speed: 94, Count: [2.53][0.00])
11:20:09 [HackSkillSpeedCheck][ana2828][Samsara] Skill Speed count error (Index: 729, Speed: 94, Count: [2.56][0.00])
11:20:11 [HackSkillSpeedCheck][ana2828][Samsara] Skill Speed count error (Index: 729, Speed: 94, Count: [2.53][0.00])
11:20:12 [HackSkillSpeedCheck][ana2828][Samsara] Skill Speed count error (Index: 729, Speed: 94, Count: [2.53][0.00])
11:20:17 [HackSkillSpeedCheck][ana2828][Samsara] Skill Speed count error (Index: 729, Speed: 94, Count: [2.53][0.00])
11:20:21 [HackSkillSpeedCheck][ana2828][Samsara] Skill Speed count error (Index: 729, Speed: 94, Count: [2.56][0.00])
11:20:27 [HackSkillSpeedCheck][ana2828][Samsara] Skill Speed count error (Index: 729, Speed: 94, Count: [2.53][0.00])
11:20:35 [HackSkillSpeedCheck][ana2828][Samsara] Skill Speed count error (Index: 729, Speed: 94, Count: [2.60][0.00])
11:20:36 [HackSkillSpeedCheck][ana2828][Samsara] Skill Speed count error (Index: 729, Speed: 94, Count: [2.53][0.00])
11:20:40 [HackSkillSpeedCheck][ana2828][Samsara] Skill Speed count error (Index: 729, Speed: 94, Count: [2.56][0.00])
11:20:42 [HackSkillSpeedCheck][ana2828][Samsara] Skill Speed count error (Index: 729, Speed: 94, Count: [2.60][0.00])
11:20:46 [HackSkillSpeedCheck][ana2828][Samsara] Skill Speed count error (Index: 729, Speed: 94, Count: [2.53][0.00])
11:20:51 [HackSkillSpeedCheck][ana2828][Samsara] Skill Speed count error (Index: 729, Speed: 94, Count: [2.53][0.00])
11:20:52 [HackSkillSpeedCheck][ana2828][Samsara] Skill Speed count error (Index: 729, Speed: 94, Count: [2.53][0.00])
11:20:57 [HackSkillSpeedCheck][ana2828][Samsara] Skill Speed count error (Index: 729, Speed: 94, Count: [2.56][0.00])
11:21:06 [HackSkillSpeedCheck][ana2828][Samsara] Skill Speed count error (Index: 729, Speed: 94, Count: [2.53][0.00])
11:25:19 [HackSkillSpeedCheck][xamego4][Rexona] Skill Speed count error (Index: 725, Speed: 142, Count: [2.82][0.00])
11:25:39 [HackSkillSpeedCheck][xamego4][Rexona] Skill Speed count error (Index: 725, Speed: 142, Count: [2.71][0.00])
11:25:45 [HackSkillSpeedCheck][xamego4][Rexona] Skill Speed count error (Index: 725, Speed: 142, Count: [2.74][0.00])
11:27:12 [HackSkillSpeedCheck][xamego4][Rexona] Skill Speed count error (Index: 725, Speed: 142, Count: [3.77][0.00])
11:29:18 [HackSkillSpeedCheck][xamego4][Rexona] Skill Speed count error (Index: 725, Speed: 142, Count: [6.22][0.00])
11:29:26 [HackSkillSpeedCheck][xamego4][Rexona] Skill Speed count error (Index: 725, Speed: 142, Count: [2.70][0.00])
11:30:25 [HackSkillSpeedCheck][xamego4][Rexona] Skill Speed count error (Index: 725, Speed: 142, Count: [2.87][0.00])
11:30:43 [HackSkillSpeedCheck][xamego4][Rexona] Skill Speed count error (Index: 725, Speed: 142, Count: [2.74][0.00])
11:32:50 [HackSkillSpeedCheck][xamego4][Rexona] Skill Speed count error (Index: 725, Speed: 142, Count: [2.78][0.00])
11:38:00 [HackSkillSpeedCheck][xamego4][Rexona] Skill Speed count error (Index: 725, Speed: 142, Count: [2.78][0.00])
11:39:51 [HackSkillSpeedCheck][xamego4][Rexona] Skill Speed count error (Index: 725, Speed: 142, Count: [2.74][0.00])
11:42:10 [HackSkillSpeedCheck][xamego4][Rexona] Skill Speed count error (Index: 725, Speed: 142, Count: [2.78][0.00])
11:43:55 [HackSkillSpeedCheck][xamego4][Rexona] Skill Speed count error (Index: 725, Speed: 142, Count: [2.74][0.00])
11:44:27 [HackSkillSpeedCheck][xamego4][Rexona] Skill Speed count error (Index: 725, Speed: 142, Count: [2.71][0.00])
11:48:06 [HackSkillSpeedCheck][xamego5][Maldita] Skill Speed count error (Index: 288, Speed: 86, Count: [1.96][0.00])
11:48:21 [HackSkillSpeedCheck][xamego4][Rexona] Skill Speed count error (Index: 725, Speed: 142, Count: [4.71][0.00])
11:48:27 [HackSkillSpeedCheck][xamego4][Rexona] Skill Speed count error (Index: 725, Speed: 142, Count: [3.00][0.00])
11:50:12 [HackSkillSpeedCheck][xamego4][Rexona] Skill Speed count error (Index: 725, Speed: 142, Count: [2.78][0.00])
11:52:40 [HackSkillSpeedCheck][xamego4][Rexona] Skill Speed count error (Index: 725, Speed: 142, Count: [2.74][0.00])
11:52:48 [HackSkillSpeedCheck][xamego4][Rexona] Skill Speed count error (Index: 725, Speed: 142, Count: [2.72][0.00])
11:54:44 [HackSkillSpeedCheck][darkloko][EnVyUs] Skill Speed count error (Index: 737, Speed: 140, Count: [3.86][0.00])
11:56:52 [HackSkillSpeedCheck][darkloko][EnVyUs] Skill Speed count error (Index: 737, Speed: 140, Count: [4.00][0.00])
12:10:06 [HackSkillSpeedCheck][darkloko][EnVyUs] Skill Speed count error (Index: 737, Speed: 140, Count: [4.05][0.00])
12:10:30 [HackSkillSpeedCheck][darkloko][EnVyUs] Skill Speed count error (Index: 737, Speed: 140, Count: [4.27][0.00])
12:12:33 [HackSkillSpeedCheck][darkloko][EnVyUs] Skill Speed count error (Index: 737, Speed: 140, Count: [4.21][0.00])
12:26:44 [HackSkillSpeedCheck][darkloko][EnVyUs] Skill Speed count error (Index: 737, Speed: 140, Count: [3.82][0.00])
14:03:56 [HackSkillSpeedCheck][TECNOTRIX][SpirtFrost] Skill Speed count error (Index: 288, Speed: 75, Count: [2.81][0.00])
14:03:57 [HackSkillSpeedCheck][TECNOTRIX][SpirtFrost] Skill Speed count error (Index: 288, Speed: 75, Count: [2.63][0.00])
14:19:21 [HackSkillSpeedCheck][TECNOTRIX][SpirtFrost] Skill Speed count error (Index: 288, Speed: 75, Count: [1.97][0.00])
14:20:08 [HackSkillSpeedCheck][TECNOTRIX][SpirtFrost] Skill Speed count error (Index: 288, Speed: 75, Count: [2.21][0.00])
14:26:07 [HackSkillSpeedCheck][TECNOTRIX][SpirtFrost] Skill Speed count error (Index: 288, Speed: 75, Count: [2.31][0.00])
14:30:20 [HackSkillSpeedCheck][TECNOTRIX][SpirtFrost] Skill Speed count error (Index: 288, Speed: 75, Count: [2.13][0.00])
14:30:21 [HackSkillSpeedCheck][TECNOTRIX][SpirtFrost] Skill Speed count error (Index: 288, Speed: 75, Count: [2.23][0.00])
16:42:57 [HackSkillSpeedCheck][xamego4][Rexona] Skill Speed count error (Index: 725, Speed: 142, Count: [2.95][0.00])
16:43:28 [HackSkillSpeedCheck][xamego4][Rexona] Skill Speed count error (Index: 725, Speed: 142, Count: [2.87][0.00])
16:44:46 [HackSkillSpeedCheck][xamego4][Rexona] Skill Speed count error (Index: 725, Speed: 142, Count: [2.91][0.00])
16:54:58 [HackSkillSpeedCheck][juarezmu5][Juarezslay] Skill Speed count error (Index: 294, Speed: 188, Count: [3.95][0.00])
16:56:04 [HackSkillSpeedCheck][juarezmu5][Juarezslay] Skill Speed count error (Index: 294, Speed: 188, Count: [3.66][0.00])
17:08:58 [HackSkillSpeedCheck][juarezmu8][JuareMary] Skill Speed count error (Index: 725, Speed: 138, Count: [2.91][0.00])
17:14:35 [HackSkillSpeedCheck][juarezmu9][MarineteLD] Skill Speed count error (Index: 235, Speed: 120, Count: [3.51][0.00])
18:09:32 [HackSkillSpeedCheck][w4l150n157][Tchau] Skill Speed count error (Index: 730, Speed: 133, Count: [3.56][0.00])
18:10:18 [HackSkillSpeedCheck][w4l150n157][Tchau] Skill Speed count error (Index: 730, Speed: 133, Count: [3.60][0.00])
18:11:58 [HackSkillSpeedCheck][w4l150n157][Tchau] Skill Speed count error (Index: 730, Speed: 138, Count: [3.51][0.00])
23:41:07 [HackSkillSpeedCheck][juarezmu9][MarineteLD] Skill Speed count error (Index: 235, Speed: 135, Count: [3.51][0.00])
23:41:19 [HackSkillSpeedCheck][juarezmu9][MarineteLD] Skill Speed count error (Index: 235, Speed: 135, Count: [4.00][0.00])
