 3
//Index   DropRate
0         10000
1         10000
2         10000
end

4
//Index   Section   SectionRate   MoneyAmount   OptionValue   DW   DK   FE   MG   DL   SU   RF   GL   RW   SL
0         5         10000         100           32             1    1    1    1    1    1    1    1    1    1    
1         6         1000          100           32             1    1    1    1    1    1    1    1    1    1  
2         7         1000          100           32             1    1    1    1    1    1    1    1    1    1 
end

5
//Index   Level   Grade   Option0   Option1   Option2   Option3   Option4   Option5   Option6   Duration   Comment
6289      0       0       *         *         *         *         *         *         *         0          //Mithril
end

6
//Index   Level   Grade   Option0   Option1   Option2   Option3   Option4   Option5   Option6   Duration   Comment
//Titan Armor - ok 380 dk
4653          0       0       *       *         13         *         *        *         14        0      
//Brave Armor - ok 380 dk
4654          0       0       *       *         13         *         *        *         14        0      
//Phantom  Armor - ok 380 mg
4655          0       0       *       *         13         *         *        *         14        0      
//Destroy  Armor - ok 380 mg
4656          0       0       *       *         13         *         *        *         14        0      
//Seraphim Armor - ok 380 elf
4657          0       0       *       *         13         *         *        *         14        0      
//Divine Armor - ok 380 elf
4658          0       0       *       *         13         *         *        *         14        0      
//Royal - ok 380 dl
4659          0       0       *       *         13         *         *        *         14        0      
//Hades ok 380 dw
4660          0       0       *       *         13         *         *        *         14        0      
//Fidelity ok 380 SL
4786          0       0       *       *         13         *         *        *         14        0      
//Eternal Wings 380 Sum
4652          0       0       *       *         13         *         *        *         14        0      
//Tigris ok 380 RF
4754          0       0       *       *         13         *         *        *         14        0      
//Grace ok 380 Lancer
4756          0       0       *       *         13         *         *        *         14        0      
//Rune Devine ok 380 RM
4728          0       0       *       *         13         *         *        *         14        0 

//Titan Armor - ok 380 dk
5677          0       0       *       *         13         *         *        *         14        0      
//Brave Armor - ok 380 dk
5678          0       0       *       *         13         *         *        *         14        0      
//Phantom  Armor - ok 380 mg
5679          0       0       *       *         13         *         *        *         14        0      
//Destroy  Armor - ok 380 mg
5680          0       0       *       *         13         *         *        *         14        0      
//Seraphim Armor - ok 380 elf
5681          0       0       *       *         13         *         *        *         14        0      
//Divine Armor - ok 380 elf
5682          0       0       *       *         13         *         *        *         14        0      
//Royal - ok 380 dl
5683          0       0       *       *         13         *         *        *         14        0      
//Hades ok 380 dw
5684          0       0       *       *         13         *         *        *         14        0      
//Fidelity ok 380 SL
5810          0       0       *       *         13         *         *        *         14        0      
//Eternal Wings 380 Sum
5676          0       0       *       *         13         *         *        *         14        0      
//Tigris ok 380 RF
5778          0       0       *       *         13         *         *        *         14        0      
//Grace ok 380 Lancer
5780          0       0       *       *         13         *         *        *         14        0      
//Rune Devine ok 380 RM
5752          0       0       *       *         13         *         *        *         14        0  

//Titan Armor - ok 380 dk
3629          0       0       *       *         13         *         *        *         14        0       	
//Brave Armor - ok 380 dk
3630          0       0       *       *         13         *         *        *         14        0      
//Phantom  Armor - ok 380 mg
4143          0       0       *       *         13         *         *        *         14        0      
//Destroy  Armor - ok 380 mg
4144          0       0       *       *         13         *         *        *         14        0      
//Seraphim Armor - ok 380 elf
3633          0       0       *       *         13         *         *        *         14        0      
//Divine Armor - ok 380 elf
3634          0       0       *       *         13         *         *        *         14        0      
//Royal - ok 380 dl
3635          0       0       *       *         13         *         *        *         14        0      
//Hades ok 380 dw
3636          0       0       *       *         13         *         *        *         14        0      
//Fidelity ok 380 SL
3762          0       0       *       *         13         *         *        *         14        0      
//Eternal Wings 380 Sum
3628          0       0       *       *         13         *         *        *         14        0      
//Tigris ok 380 RF
3730          0       0       *       *         13         *         *        *         14        0      
//Grace ok 380 Lancer
3732          0       0       *       *         13         *         *        *         14        0      
//Rune Devine ok 380 RM
3704          0       0       *       *         13         *         *        *         14        0 

//Titan Armor - ok 380 dk
4141          0       0       *       *         13         *         *        *         14        0      
//Brave Armor - ok 380 dk
4142          0       0       *       *         13         *         *        *         14        0      
//Phantom  Armor - ok 380 mg
4143          0       0       *       *         13         *         *        *         14        0      
//Destroy  Armor - ok 380 mg
4144          0       0       *       *         13         *         *        *         14        0      
//Seraphim Armor - ok 380 elf
4145          0       0       *       *         13         *         *        *         14        0      
//Divine Armor - ok 380 elf
4146          0       0       *       *         13         *         *        *         14        0      
//Royal - ok 380 dl
4147          0       0       *       *         13         *         *        *         14        0      
//Hades ok 380 dw
4148          0       0       *       *         13         *         *        *         14        0      
//Fidelity ok 380 SL
4274          0       0       *       *         13         *         *        *         14        0      
//Eternal Wings 380 Sum
4140          0       0       *       *         13         *         *        *         14        0      
//Tigris ok 380 RF
4242          0       0       *       *         13         *         *        *         14        0      
//Grace ok 380 Lancer
4244          0       0       *       *         13         *         *        *         14        0      
//Rune Devine ok 380 RM
4216          0       0       *       *         13         *         *        *         14        0 

//Titan Armor - ok 380 dk
5165          0       0       *       *         13         *         *        *         14        0      
//Brave Armor - ok 380 dk
5166          0       0       *       *         13         *         *        *         14        0      
//Phantom  Armor - ok 380 mg
5167          0       0       *       *         13         *         *        *         14        0      
//Destroy  Armor - ok 380 mg
5168          0       0       *       *         13         *         *        *         14        0      
//Seraphim Armor - ok 380 elf
5169          0       0       *       *         13         *         *        *         14        0      
//Divine Armor - ok 380 elf
5170          0       0       *       *         13         *         *        *         14        0      
//Royal - ok 380 dl
5171          0       0       *       *         13         *         *        *         14        0      
//Hades ok 380 dw
5172          0       0       *       *         13         *         *        *         14        0      
//Fidelity ok 380 SL
5298          0       0       *       *         13         *         *        *         14        0      
//Eternal Wings 380 Sum
5164          0       0       *       *         13         *         *        *         14        0      
//Grace ok 380 Lancer
5268          0       0       *       *         13         *         *        *         14        0      
//Rune Devine ok 380 RM
5240          0       0       *       *         13         *         *        *         14        0     
end
 
7  
//Index   Level   Grade   Option0   Option1   Option2   Option3   Option4   Option5   Option6   Duration Comment     
6269      0       0       610       *         *         *         *        *         0         0         //Seed Sphere (Water)"    
6270      0       0       610       *         *         *         *        *         0         0         //Seed Sphere (Ice)"      
6271      0       0       600       *         *         *         *        *         0         0         //Seed Sphere (Wind)"     
6272      0       0       620       *         *         *         *        *         0         0         //Seed Sphere (Lightning)"
6273      0       0       620       *         *         *         *        *         0         0         //Seed Sphere (Earth)
end